#FIG 3.2  Produced by xfig version 3.2.8b
Landscape
Center
Metric
A4
100.00
Single
-2
1200 2
0 32 #c6b797
0 33 #eff8ff
0 34 #dccba6
0 35 #404040
0 36 #808080
0 37 #c0c0c0
0 38 #e0e0e0
0 39 #8e8f8e
0 40 #aaaaaa
0 41 #555555
0 42 #bebebe
0 43 #515151
0 44 #e7e3e7
0 45 #000049
0 46 #797979
0 47 #303430
0 48 #414141
0 49 #c7b696
0 50 #8e8e8e
0 51 #414541
0 52 #8e8e8e
0 53 #cccccc
0 54 #868286
0 55 #c7c3c7
0 56 #444444
0 57 #868686
0 58 #c7c7c7
0 59 #e7e7e7
0 60 #f7f7f7
0 61 #9e9e9e
0 62 #717571
0 63 #effbff
0 64 #666666
0 65 #909090
0 66 #e6e4ce
0 67 #9b9b9b
0 68 #ce9100
0 69 #f762aa
0 70 #7070ff
0 71 #5f5f5f
0 72 #e2e2ee
0 73 #94949a
0 74 #dbdbdb
0 75 #a1a1b7
0 76 #9c0000
0 77 #000000
0 78 #ffffff
0 79 #dd9d93
0 80 #f1ece0
0 81 #c3c3c3
0 82 #e2c8a8
0 83 #e1e1e1
0 84 #d2d2d2
0 85 #ededed
0 86 #da7a1a
0 87 #f1e41a
0 88 #887dc2
0 89 #d6d6d6
0 90 #8c8ca5
0 91 #4a4a4a
0 92 #5a5a5a
0 93 #636363
0 94 #b79b73
0 95 #4193ff
0 96 #bf703b
0 97 #db7700
0 98 #dab800
0 99 #006400
0 100 #5a6b3b
0 101 #d3d3d3
0 102 #8e8ea4
0 103 #f3b95d
0 104 #89996b
0 105 #646464
0 106 #b7e6ff
0 107 #86c0ec
0 108 #bdbdbd
0 109 #d39552
0 110 #98d2fe
0 111 #8c6b6b
0 112 #8c9c6b
0 113 #f76b00
0 114 #5a6b39
0 115 #8c9c6b
0 116 #8c9c7b
0 117 #184a18
0 118 #adadad
0 119 #f7bd5a
0 120 #636b9c
0 121 #de0000
0 122 #adadad
0 123 #f3eed3
0 124 #f5ae5d
0 125 #95ce99
0 126 #b5157d
0 127 #eeeeee
0 128 #848484
0 129 #7b7b7b
0 130 #005a00
0 131 #e77373
0 132 #ffcb31
0 133 #29794a
0 134 #de2821
0 135 #2159c6
0 136 #f8f8f8
0 137 #e6e6e6
0 138 #a5b5c6
0 139 #6b6b94
0 140 #846b6b
0 141 #529c4a
0 142 #d6e7e7
0 143 #526363
0 144 #186b4a
0 145 #21845a
0 146 #dedede
0 147 #526b29
0 148 #949494
0 149 #006300
0 150 #9ca5b5
0 151 #ff9400
0 152 #ff9400
0 153 #00634a
0 154 #7b844a
0 155 #63737b
0 156 #e7bd7b
0 157 #a0a0a0
0 158 #565151
0 159 #d7d7d7
0 160 #85807d
0 161 #3a3a3a
0 162 #4573aa
0 163 #aeaeae
0 164 #7b79a5
0 165 #73758c
0 166 #635dce
# 8-port Ethernet switch
# drawn by P. David
6 450 900 4950 1530
2 3 0 1 0 7 51 -1 10 0.000 0 0 7 0 0 9
	 630 1170 630 1395 765 1395 765 1440 855 1440 855 1395
	 990 1395 990 1170 630 1170
2 3 0 1 0 7 51 -1 10 0.000 0 0 7 0 0 9
	 1170 1170 1170 1395 1305 1395 1305 1440 1395 1440 1395 1395
	 1530 1395 1530 1170 1170 1170
2 3 0 1 0 7 51 -1 10 0.000 0 0 7 0 0 9
	 1710 1170 1710 1395 1845 1395 1845 1440 1935 1440 1935 1395
	 2070 1395 2070 1170 1710 1170
2 3 0 1 0 7 51 -1 10 0.000 0 0 7 0 0 9
	 2250 1170 2250 1395 2385 1395 2385 1440 2475 1440 2475 1395
	 2610 1395 2610 1170 2250 1170
2 3 0 1 0 7 51 -1 10 0.000 0 0 7 0 0 9
	 2790 1170 2790 1395 2925 1395 2925 1440 3015 1440 3015 1395
	 3150 1395 3150 1170 2790 1170
2 3 0 1 0 7 51 -1 10 0.000 0 0 7 0 0 9
	 3330 1170 3330 1395 3465 1395 3465 1440 3555 1440 3555 1395
	 3690 1395 3690 1170 3330 1170
2 3 0 1 0 7 51 -1 10 0.000 0 0 7 0 0 9
	 3870 1170 3870 1395 4005 1395 4005 1440 4095 1440 4095 1395
	 4230 1395 4230 1170 3870 1170
2 3 0 1 0 7 51 -1 10 0.000 0 0 7 0 0 9
	 4410 1170 4410 1395 4545 1395 4545 1440 4635 1440 4635 1395
	 4770 1395 4770 1170 4410 1170
2 2 0 1 0 7 52 -1 18 0.000 0 0 -1 0 0 5
	 450 900 4950 900 4950 1530 450 1530 450 900
4 0 0 51 -1 16 10 0.0000 4 120 90 810 1080 1\001
4 0 0 51 -1 16 10 0.0000 4 120 90 1350 1080 2\001
4 0 0 51 -1 16 10 0.0000 4 120 90 1890 1080 3\001
4 0 0 51 -1 16 10 0.0000 4 120 90 2430 1080 4\001
4 0 0 51 -1 16 10 0.0000 4 120 90 2970 1080 5\001
4 0 0 51 -1 16 10 0.0000 4 120 90 3510 1080 6\001
4 0 0 51 -1 16 10 0.0000 4 120 90 4050 1080 7\001
4 0 0 51 -1 16 10 0.0000 4 120 90 4590 1080 8\001
-6
# Desktop computer
6 90 2250 990 3390
6 164 2269 926 2967
2 2 0 1 0 38 20 0 20 0.000 2 0 7 0 0 5
	 164 2269 926 2269 926 2903 164 2903 164 2269
2 2 0 0 0 35 19 0 22 0.000 1 0 -1 0 0 5
	 767 2332 703 2332 703 2840 767 2840 767 2332
2 2 0 0 0 35 19 0 24 0.000 1 0 -1 0 0 5
	 703 2332 640 2332 640 2840 703 2840 703 2332
2 2 0 0 0 35 19 0 26 0.000 1 0 -1 0 0 5
	 640 2332 545 2332 545 2840 640 2840 640 2332
2 2 0 0 0 35 19 0 28 0.000 1 0 -1 0 0 5
	 545 2332 450 2332 450 2840 545 2840 545 2332
2 2 0 0 0 35 19 0 30 0.000 1 0 -1 0 0 5
	 450 2332 386 2332 386 2840 450 2840 450 2332
2 2 0 0 0 35 19 0 33 0.000 1 0 -1 0 0 5
	 386 2332 322 2332 322 2840 386 2840 386 2332
2 2 0 0 0 35 19 0 33 0.000 1 0 -1 0 0 5
	 322 2332 259 2332 259 2840 322 2840 322 2332
2 2 0 1 0 36 20 0 20 0.000 2 0 7 0 0 5
	 386 2903 703 2903 703 2935 386 2935 386 2903
2 2 0 1 0 36 20 0 20 0.000 2 0 -1 0 0 5
	 354 2935 735 2935 735 2967 354 2967 354 2935
2 2 0 0 0 35 19 0 20 0.000 1 0 7 0 0 5
	 830 2332 767 2332 767 2840 830 2840 830 2332
3 5 0 0 0 37 18 0 20 0.000 0 0 0 4
	 227 2332 227 2840 259 2808 259 2364
	 0.000 0.000 0.000 0.000
3 5 0 0 0 7 18 0 20 0.000 0 0 0 5
	 227 2840 259 2808 551 2821 830 2808 862 2840
	 0.000 0.000 -1.000 0.000 0.000
3 5 0 0 0 37 18 0 20 0.000 0 0 0 4
	 862 2332 862 2840 830 2808 830 2364
	 0.000 0.000 0.000 0.000
3 5 0 0 0 36 18 0 20 0.000 0 0 0 5
	 227 2332 259 2364 551 2351 830 2364 862 2332
	 0.000 0.000 -1.000 0.000 0.000
-6
6 100 3189 989 3380
2 3 0 1 0 38 20 0 20 0.000 2 0 7 0 0 7
	 195 3189 894 3189 989 3348 989 3380 100 3380 100 3348
	 195 3189
2 1 0 1 0 37 19 0 20 0.000 2 0 -1 0 0 4
	 100 3348 100 3380 989 3380 989 3348
2 3 0 0 0 7 19 0 20 0.000 2 0 -1 0 0 5
	 227 3221 164 3316 735 3316 703 3221 227 3221
2 2 0 0 0 36 18 0 20 0.000 2 0 -1 0 0 5
	 164 3316 735 3316 735 3328 164 3328 164 3316
2 3 0 0 0 37 18 0 20 0.000 2 0 -1 0 0 9
	 215 3221 164 3316 259 3316 272 3285 250 3285 263 3253
	 242 3253 259 3221 215 3221
2 3 0 0 0 37 18 0 20 0.000 2 0 -1 0 0 10
	 735 3316 640 3316 640 3284 661 3285 658 3253 672 3253
	 676 3253 670 3221 710 3221 735 3316
2 3 0 0 0 7 19 0 20 0.000 2 0 -1 0 0 5
	 862 3221 735 3221 767 3316 926 3316 862 3221
2 3 0 0 0 37 18 0 20 0.000 2 0 -1 0 0 7
	 926 3316 897 3316 862 3240 741 3240 735 3221 875 3221
	 926 3316
2 2 0 0 0 36 18 0 20 0.000 2 0 -1 0 0 5
	 767 3316 926 3316 926 3327 767 3327 767 3316
2 3 0 0 0 36 18 0 20 0.000 2 0 -1 0 0 5
	 767 3317 766 3328 734 3230 735 3222 767 3317
-6
6 179 2967 910 3158
6 650 3000 872 3063
6 650 3000 872 3063
2 1 0 1 36 -1 19 0 -1 0.000 2 0 -1 0 0 5
	 650 3032 650 3016 718 3016 718 3000 803 3000
2 1 0 1 36 -1 19 0 -1 0.000 2 0 -1 0 0 3
	 718 3063 718 3032 803 3032
2 1 0 1 36 -1 19 0 -1 0.000 2 0 -1 0 0 2
	 803 3016 872 3016
2 1 0 1 7 -1 19 0 -1 0.000 2 0 -1 0 0 2
	 803 3000 803 3016
2 1 0 1 7 -1 19 0 -1 0.000 2 0 -1 0 0 2
	 650 3032 718 3032
2 1 0 1 7 -1 19 0 -1 0.000 2 0 -1 0 0 5
	 718 3063 803 3063 803 3032 872 3032 872 3016
2 1 0 1 36 -1 19 0 -1 0.000 2 0 -1 0 0 3
	 820 3063 854 3063 854 3048
2 1 0 1 7 -1 19 0 -1 0.000 2 0 -1 0 0 3
	 820 3063 820 3048 854 3048
-6
-6
2 2 0 1 0 35 20 0 20 0.000 2 0 -1 0 0 5
	 179 3158 275 3158 275 3141 179 3141 179 3158
2 2 0 1 0 35 20 0 20 0.000 2 0 -1 0 0 5
	 814 3158 910 3158 910 3141 814 3141 814 3158
2 2 0 1 0 38 20 0 20 0.000 2 0 -1 0 0 5
	 179 2967 910 2967 910 3142 179 3142 179 2967
-6
-6
# Desktop computer
6 1530 2700 2430 3840
6 1604 2719 2366 3417
2 2 0 1 0 38 20 0 20 0.000 2 0 7 0 0 5
	 1604 2719 2366 2719 2366 3353 1604 3353 1604 2719
2 2 0 0 0 35 19 0 22 0.000 1 0 -1 0 0 5
	 2207 2782 2143 2782 2143 3290 2207 3290 2207 2782
2 2 0 0 0 35 19 0 24 0.000 1 0 -1 0 0 5
	 2143 2782 2080 2782 2080 3290 2143 3290 2143 2782
2 2 0 0 0 35 19 0 26 0.000 1 0 -1 0 0 5
	 2080 2782 1985 2782 1985 3290 2080 3290 2080 2782
2 2 0 0 0 35 19 0 28 0.000 1 0 -1 0 0 5
	 1985 2782 1890 2782 1890 3290 1985 3290 1985 2782
2 2 0 0 0 35 19 0 30 0.000 1 0 -1 0 0 5
	 1890 2782 1826 2782 1826 3290 1890 3290 1890 2782
2 2 0 0 0 35 19 0 33 0.000 1 0 -1 0 0 5
	 1826 2782 1762 2782 1762 3290 1826 3290 1826 2782
2 2 0 0 0 35 19 0 33 0.000 1 0 -1 0 0 5
	 1762 2782 1699 2782 1699 3290 1762 3290 1762 2782
2 2 0 1 0 36 20 0 20 0.000 2 0 7 0 0 5
	 1826 3353 2143 3353 2143 3385 1826 3385 1826 3353
2 2 0 1 0 36 20 0 20 0.000 2 0 -1 0 0 5
	 1794 3385 2175 3385 2175 3417 1794 3417 1794 3385
2 2 0 0 0 35 19 0 20 0.000 1 0 7 0 0 5
	 2270 2782 2207 2782 2207 3290 2270 3290 2270 2782
3 5 0 0 0 37 18 0 20 0.000 0 0 0 4
	 1667 2782 1667 3290 1699 3258 1699 2814
	 0.000 0.000 0.000 0.000
3 5 0 0 0 7 18 0 20 0.000 0 0 0 5
	 1667 3290 1699 3258 1991 3271 2270 3258 2302 3290
	 0.000 0.000 -1.000 0.000 0.000
3 5 0 0 0 37 18 0 20 0.000 0 0 0 4
	 2302 2782 2302 3290 2270 3258 2270 2814
	 0.000 0.000 0.000 0.000
3 5 0 0 0 36 18 0 20 0.000 0 0 0 5
	 1667 2782 1699 2814 1991 2801 2270 2814 2302 2782
	 0.000 0.000 -1.000 0.000 0.000
-6
6 1540 3639 2429 3830
2 3 0 1 0 38 20 0 20 0.000 2 0 7 0 0 7
	 1635 3639 2334 3639 2429 3798 2429 3830 1540 3830 1540 3798
	 1635 3639
2 1 0 1 0 37 19 0 20 0.000 2 0 -1 0 0 4
	 1540 3798 1540 3830 2429 3830 2429 3798
2 3 0 0 0 7 19 0 20 0.000 2 0 -1 0 0 5
	 1667 3671 1604 3766 2175 3766 2143 3671 1667 3671
2 2 0 0 0 36 18 0 20 0.000 2 0 -1 0 0 5
	 1604 3766 2175 3766 2175 3778 1604 3778 1604 3766
2 3 0 0 0 37 18 0 20 0.000 2 0 -1 0 0 9
	 1655 3671 1604 3766 1699 3766 1712 3735 1690 3735 1703 3703
	 1682 3703 1699 3671 1655 3671
2 3 0 0 0 37 18 0 20 0.000 2 0 -1 0 0 10
	 2175 3766 2080 3766 2080 3734 2101 3735 2098 3703 2112 3703
	 2116 3703 2110 3671 2150 3671 2175 3766
2 3 0 0 0 7 19 0 20 0.000 2 0 -1 0 0 5
	 2302 3671 2175 3671 2207 3766 2366 3766 2302 3671
2 3 0 0 0 37 18 0 20 0.000 2 0 -1 0 0 7
	 2366 3766 2337 3766 2302 3690 2181 3690 2175 3671 2315 3671
	 2366 3766
2 2 0 0 0 36 18 0 20 0.000 2 0 -1 0 0 5
	 2207 3766 2366 3766 2366 3777 2207 3777 2207 3766
2 3 0 0 0 36 18 0 20 0.000 2 0 -1 0 0 5
	 2207 3767 2206 3778 2174 3680 2175 3672 2207 3767
-6
6 1619 3417 2350 3608
6 2090 3450 2312 3513
6 2090 3450 2312 3513
2 1 0 1 36 -1 19 0 -1 0.000 2 0 -1 0 0 5
	 2090 3482 2090 3466 2158 3466 2158 3450 2243 3450
2 1 0 1 36 -1 19 0 -1 0.000 2 0 -1 0 0 3
	 2158 3513 2158 3482 2243 3482
2 1 0 1 36 -1 19 0 -1 0.000 2 0 -1 0 0 2
	 2243 3466 2312 3466
2 1 0 1 7 -1 19 0 -1 0.000 2 0 -1 0 0 2
	 2243 3450 2243 3466
2 1 0 1 7 -1 19 0 -1 0.000 2 0 -1 0 0 2
	 2090 3482 2158 3482
2 1 0 1 7 -1 19 0 -1 0.000 2 0 -1 0 0 5
	 2158 3513 2243 3513 2243 3482 2312 3482 2312 3466
2 1 0 1 36 -1 19 0 -1 0.000 2 0 -1 0 0 3
	 2260 3513 2294 3513 2294 3498
2 1 0 1 7 -1 19 0 -1 0.000 2 0 -1 0 0 3
	 2260 3513 2260 3498 2294 3498
-6
-6
2 2 0 1 0 35 20 0 20 0.000 2 0 -1 0 0 5
	 1619 3608 1715 3608 1715 3591 1619 3591 1619 3608
2 2 0 1 0 35 20 0 20 0.000 2 0 -1 0 0 5
	 2254 3608 2350 3608 2350 3591 2254 3591 2254 3608
2 2 0 1 0 38 20 0 20 0.000 2 0 -1 0 0 5
	 1619 3417 2350 3417 2350 3592 1619 3592 1619 3417
-6
-6
# Desktop computer
6 2970 2340 3870 3480
6 3044 2359 3806 3057
2 2 0 1 0 38 20 0 20 0.000 2 0 7 0 0 5
	 3044 2359 3806 2359 3806 2993 3044 2993 3044 2359
2 2 0 0 0 35 19 0 22 0.000 1 0 -1 0 0 5
	 3647 2422 3583 2422 3583 2930 3647 2930 3647 2422
2 2 0 0 0 35 19 0 24 0.000 1 0 -1 0 0 5
	 3583 2422 3520 2422 3520 2930 3583 2930 3583 2422
2 2 0 0 0 35 19 0 26 0.000 1 0 -1 0 0 5
	 3520 2422 3425 2422 3425 2930 3520 2930 3520 2422
2 2 0 0 0 35 19 0 28 0.000 1 0 -1 0 0 5
	 3425 2422 3330 2422 3330 2930 3425 2930 3425 2422
2 2 0 0 0 35 19 0 30 0.000 1 0 -1 0 0 5
	 3330 2422 3266 2422 3266 2930 3330 2930 3330 2422
2 2 0 0 0 35 19 0 33 0.000 1 0 -1 0 0 5
	 3266 2422 3202 2422 3202 2930 3266 2930 3266 2422
2 2 0 0 0 35 19 0 33 0.000 1 0 -1 0 0 5
	 3202 2422 3139 2422 3139 2930 3202 2930 3202 2422
2 2 0 1 0 36 20 0 20 0.000 2 0 7 0 0 5
	 3266 2993 3583 2993 3583 3025 3266 3025 3266 2993
2 2 0 1 0 36 20 0 20 0.000 2 0 -1 0 0 5
	 3234 3025 3615 3025 3615 3057 3234 3057 3234 3025
2 2 0 0 0 35 19 0 20 0.000 1 0 7 0 0 5
	 3710 2422 3647 2422 3647 2930 3710 2930 3710 2422
3 5 0 0 0 37 18 0 20 0.000 0 0 0 4
	 3107 2422 3107 2930 3139 2898 3139 2454
	 0.000 0.000 0.000 0.000
3 5 0 0 0 7 18 0 20 0.000 0 0 0 5
	 3107 2930 3139 2898 3431 2911 3710 2898 3742 2930
	 0.000 0.000 -1.000 0.000 0.000
3 5 0 0 0 37 18 0 20 0.000 0 0 0 4
	 3742 2422 3742 2930 3710 2898 3710 2454
	 0.000 0.000 0.000 0.000
3 5 0 0 0 36 18 0 20 0.000 0 0 0 5
	 3107 2422 3139 2454 3431 2441 3710 2454 3742 2422
	 0.000 0.000 -1.000 0.000 0.000
-6
6 2980 3279 3869 3470
2 3 0 1 0 38 20 0 20 0.000 2 0 7 0 0 7
	 3075 3279 3774 3279 3869 3438 3869 3470 2980 3470 2980 3438
	 3075 3279
2 1 0 1 0 37 19 0 20 0.000 2 0 -1 0 0 4
	 2980 3438 2980 3470 3869 3470 3869 3438
2 3 0 0 0 7 19 0 20 0.000 2 0 -1 0 0 5
	 3107 3311 3044 3406 3615 3406 3583 3311 3107 3311
2 2 0 0 0 36 18 0 20 0.000 2 0 -1 0 0 5
	 3044 3406 3615 3406 3615 3418 3044 3418 3044 3406
2 3 0 0 0 37 18 0 20 0.000 2 0 -1 0 0 9
	 3095 3311 3044 3406 3139 3406 3152 3375 3130 3375 3143 3343
	 3122 3343 3139 3311 3095 3311
2 3 0 0 0 37 18 0 20 0.000 2 0 -1 0 0 10
	 3615 3406 3520 3406 3520 3374 3541 3375 3538 3343 3552 3343
	 3556 3343 3550 3311 3590 3311 3615 3406
2 3 0 0 0 7 19 0 20 0.000 2 0 -1 0 0 5
	 3742 3311 3615 3311 3647 3406 3806 3406 3742 3311
2 3 0 0 0 37 18 0 20 0.000 2 0 -1 0 0 7
	 3806 3406 3777 3406 3742 3330 3621 3330 3615 3311 3755 3311
	 3806 3406
2 2 0 0 0 36 18 0 20 0.000 2 0 -1 0 0 5
	 3647 3406 3806 3406 3806 3417 3647 3417 3647 3406
2 3 0 0 0 36 18 0 20 0.000 2 0 -1 0 0 5
	 3647 3407 3646 3418 3614 3320 3615 3312 3647 3407
-6
6 3059 3057 3790 3248
6 3530 3090 3752 3153
6 3530 3090 3752 3153
2 1 0 1 36 -1 19 0 -1 0.000 2 0 -1 0 0 5
	 3530 3122 3530 3106 3598 3106 3598 3090 3683 3090
2 1 0 1 36 -1 19 0 -1 0.000 2 0 -1 0 0 3
	 3598 3153 3598 3122 3683 3122
2 1 0 1 36 -1 19 0 -1 0.000 2 0 -1 0 0 2
	 3683 3106 3752 3106
2 1 0 1 7 -1 19 0 -1 0.000 2 0 -1 0 0 2
	 3683 3090 3683 3106
2 1 0 1 7 -1 19 0 -1 0.000 2 0 -1 0 0 2
	 3530 3122 3598 3122
2 1 0 1 7 -1 19 0 -1 0.000 2 0 -1 0 0 5
	 3598 3153 3683 3153 3683 3122 3752 3122 3752 3106
2 1 0 1 36 -1 19 0 -1 0.000 2 0 -1 0 0 3
	 3700 3153 3734 3153 3734 3138
2 1 0 1 7 -1 19 0 -1 0.000 2 0 -1 0 0 3
	 3700 3153 3700 3138 3734 3138
-6
-6
2 2 0 1 0 35 20 0 20 0.000 2 0 -1 0 0 5
	 3059 3248 3155 3248 3155 3231 3059 3231 3059 3248
2 2 0 1 0 35 20 0 20 0.000 2 0 -1 0 0 5
	 3694 3248 3790 3248 3790 3231 3694 3231 3694 3248
2 2 0 1 0 38 20 0 20 0.000 2 0 -1 0 0 5
	 3059 3057 3790 3057 3790 3232 3059 3232 3059 3057
-6
-6
# Desktop computer
6 4500 2070 5400 3210
6 4574 2089 5336 2787
2 2 0 1 0 38 20 0 20 0.000 2 0 7 0 0 5
	 4574 2089 5336 2089 5336 2723 4574 2723 4574 2089
2 2 0 0 0 35 19 0 22 0.000 1 0 -1 0 0 5
	 5177 2152 5113 2152 5113 2660 5177 2660 5177 2152
2 2 0 0 0 35 19 0 24 0.000 1 0 -1 0 0 5
	 5113 2152 5050 2152 5050 2660 5113 2660 5113 2152
2 2 0 0 0 35 19 0 26 0.000 1 0 -1 0 0 5
	 5050 2152 4955 2152 4955 2660 5050 2660 5050 2152
2 2 0 0 0 35 19 0 28 0.000 1 0 -1 0 0 5
	 4955 2152 4860 2152 4860 2660 4955 2660 4955 2152
2 2 0 0 0 35 19 0 30 0.000 1 0 -1 0 0 5
	 4860 2152 4796 2152 4796 2660 4860 2660 4860 2152
2 2 0 0 0 35 19 0 33 0.000 1 0 -1 0 0 5
	 4796 2152 4732 2152 4732 2660 4796 2660 4796 2152
2 2 0 0 0 35 19 0 33 0.000 1 0 -1 0 0 5
	 4732 2152 4669 2152 4669 2660 4732 2660 4732 2152
2 2 0 1 0 36 20 0 20 0.000 2 0 7 0 0 5
	 4796 2723 5113 2723 5113 2755 4796 2755 4796 2723
2 2 0 1 0 36 20 0 20 0.000 2 0 -1 0 0 5
	 4764 2755 5145 2755 5145 2787 4764 2787 4764 2755
2 2 0 0 0 35 19 0 20 0.000 1 0 7 0 0 5
	 5240 2152 5177 2152 5177 2660 5240 2660 5240 2152
3 5 0 0 0 37 18 0 20 0.000 0 0 0 4
	 4637 2152 4637 2660 4669 2628 4669 2184
	 0.000 0.000 0.000 0.000
3 5 0 0 0 7 18 0 20 0.000 0 0 0 5
	 4637 2660 4669 2628 4961 2641 5240 2628 5272 2660
	 0.000 0.000 -1.000 0.000 0.000
3 5 0 0 0 37 18 0 20 0.000 0 0 0 4
	 5272 2152 5272 2660 5240 2628 5240 2184
	 0.000 0.000 0.000 0.000
3 5 0 0 0 36 18 0 20 0.000 0 0 0 5
	 4637 2152 4669 2184 4961 2171 5240 2184 5272 2152
	 0.000 0.000 -1.000 0.000 0.000
-6
6 4510 3009 5399 3200
2 3 0 1 0 38 20 0 20 0.000 2 0 7 0 0 7
	 4605 3009 5304 3009 5399 3168 5399 3200 4510 3200 4510 3168
	 4605 3009
2 1 0 1 0 37 19 0 20 0.000 2 0 -1 0 0 4
	 4510 3168 4510 3200 5399 3200 5399 3168
2 3 0 0 0 7 19 0 20 0.000 2 0 -1 0 0 5
	 4637 3041 4574 3136 5145 3136 5113 3041 4637 3041
2 2 0 0 0 36 18 0 20 0.000 2 0 -1 0 0 5
	 4574 3136 5145 3136 5145 3148 4574 3148 4574 3136
2 3 0 0 0 37 18 0 20 0.000 2 0 -1 0 0 9
	 4625 3041 4574 3136 4669 3136 4682 3105 4660 3105 4673 3073
	 4652 3073 4669 3041 4625 3041
2 3 0 0 0 37 18 0 20 0.000 2 0 -1 0 0 10
	 5145 3136 5050 3136 5050 3104 5071 3105 5068 3073 5082 3073
	 5086 3073 5080 3041 5120 3041 5145 3136
2 3 0 0 0 7 19 0 20 0.000 2 0 -1 0 0 5
	 5272 3041 5145 3041 5177 3136 5336 3136 5272 3041
2 3 0 0 0 37 18 0 20 0.000 2 0 -1 0 0 7
	 5336 3136 5307 3136 5272 3060 5151 3060 5145 3041 5285 3041
	 5336 3136
2 2 0 0 0 36 18 0 20 0.000 2 0 -1 0 0 5
	 5177 3136 5336 3136 5336 3147 5177 3147 5177 3136
2 3 0 0 0 36 18 0 20 0.000 2 0 -1 0 0 5
	 5177 3137 5176 3148 5144 3050 5145 3042 5177 3137
-6
6 4589 2787 5320 2978
6 5060 2820 5282 2883
6 5060 2820 5282 2883
2 1 0 1 36 -1 19 0 -1 0.000 2 0 -1 0 0 5
	 5060 2852 5060 2836 5128 2836 5128 2820 5213 2820
2 1 0 1 36 -1 19 0 -1 0.000 2 0 -1 0 0 3
	 5128 2883 5128 2852 5213 2852
2 1 0 1 36 -1 19 0 -1 0.000 2 0 -1 0 0 2
	 5213 2836 5282 2836
2 1 0 1 7 -1 19 0 -1 0.000 2 0 -1 0 0 2
	 5213 2820 5213 2836
2 1 0 1 7 -1 19 0 -1 0.000 2 0 -1 0 0 2
	 5060 2852 5128 2852
2 1 0 1 7 -1 19 0 -1 0.000 2 0 -1 0 0 5
	 5128 2883 5213 2883 5213 2852 5282 2852 5282 2836
2 1 0 1 36 -1 19 0 -1 0.000 2 0 -1 0 0 3
	 5230 2883 5264 2883 5264 2868
2 1 0 1 7 -1 19 0 -1 0.000 2 0 -1 0 0 3
	 5230 2883 5230 2868 5264 2868
-6
-6
2 2 0 1 0 35 20 0 20 0.000 2 0 -1 0 0 5
	 4589 2978 4685 2978 4685 2961 4589 2961 4589 2978
2 2 0 1 0 35 20 0 20 0.000 2 0 -1 0 0 5
	 5224 2978 5320 2978 5320 2961 5224 2961 5224 2978
2 2 0 1 0 38 20 0 20 0.000 2 0 -1 0 0 5
	 4589 2787 5320 2787 5320 2962 4589 2962 4589 2787
-6
-6
2 1 0 2 0 7 40 -1 -1 0.000 0 0 -1 0 0 2
	 810 1305 495 2430
2 1 0 2 0 7 40 -1 -1 0.000 0 0 -1 0 0 2
	 1890 1305 1980 2835
2 1 0 2 0 7 40 -1 -1 0.000 0 0 -1 0 0 2
	 2925 1305 3465 2565
2 1 0 2 0 7 40 -1 -1 0.000 0 0 -1 0 0 2
	 4590 1305 4950 2340
3 0 0 5 20 7 32 -1 -1 0.000 1 1 0 7
	1 1 4.00 75.00 90.00
	 495 2475 495 2070 765 1305 1215 1260 1980 1260 3015 1260
	 3375 2340
	 0.000 1.000 1.000 1.000 1.000 1.000 0.000
3 0 0 5 20 7 30 -1 -1 0.000 1 1 0 6
	1 1 4.00 75.00 90.00
	 495 2475 495 2070 765 1305 1215 1260 1845 1260 2025 2700
	 0.000 1.000 1.000 1.000 1.000 0.000
3 0 0 5 20 7 32 -1 -1 0.000 1 1 0 8
	1 1 4.00 75.00 90.00
	 495 2475 495 2070 765 1305 1215 1260 1980 1260 3915 1260
	 4680 1260 4905 2070
	 0.000 1.000 1.000 1.000 1.000 1.000 1.000 0.000
4 1 0 50 -1 16 10 0.0000 4 120 105 540 3555 A\001
4 1 0 50 -1 16 10 0.0000 4 120 105 1980 4005 B\001
4 1 0 50 -1 16 10 0.0000 4 120 120 3420 3645 C\001
4 1 0 50 -1 16 10 0.0000 4 120 120 4950 3375 D\001
