> rm toto			# toto existe, il est supprimé
> echo $?
0				# tout s'est bien passé

> rm toto			# toto n'existe plus
rm: cannot remove 'toto': No such file or directory
> echo $?
1				# ça s'est effectivement mal passé

> rm toto 2> /dev/null		# éliminer le message disgrâcieux
> echo $?
1
