#FIG 3.2  Produced by xfig version 3.2.5c
Portrait
Center
Metric
A4      
100.00
Single
-2
1200 2
2 1 0 1 0 7 50 -1 -1 0.000 0 0 -1 0 0 2
	 225 900 270 900
2 1 0 1 0 7 50 -1 -1 0.000 0 0 -1 0 0 2
	 225 1125 270 1125
2 1 0 1 0 7 50 -1 -1 0.000 0 0 -1 0 0 2
	 225 1350 270 1350
2 1 0 1 0 7 50 -1 -1 0.000 0 0 -1 0 0 2
	 225 2250 270 2250
2 1 0 1 0 7 50 -1 -1 0.000 0 0 -1 0 0 2
	 225 2475 270 2475
2 1 0 1 0 7 50 -1 -1 0.000 0 0 -1 0 0 2
	 225 2700 270 2700
2 1 0 1 0 7 50 -1 -1 0.000 0 0 -1 0 0 2
	 3780 2250 3825 2250
2 1 0 1 0 7 50 -1 -1 0.000 0 0 -1 0 0 2
	 3780 2475 3825 2475
2 1 0 1 0 7 50 -1 -1 0.000 0 0 -1 0 0 2
	 3780 2700 3825 2700
2 1 0 1 0 7 50 -1 -1 0.000 0 0 -1 0 0 2
	 3780 900 3825 900
2 1 0 1 0 7 50 -1 -1 0.000 0 0 -1 0 0 2
	 3780 1125 3825 1125
2 1 0 1 0 7 50 -1 -1 0.000 0 0 -1 0 0 2
	 3780 1350 3825 1350
2 1 0 1 -1 -1 50 0 -1 0.000 0 0 -1 0 0 4
	 225 2025 225 2925 3825 2925 3825 2025
2 1 0 1 -1 -1 50 0 -1 0.000 0 0 -1 0 0 2
	 225 2025 3825 2025
2 1 0 1 -1 -1 50 0 -1 0.000 0 0 -1 0 0 2
	 225 1575 3825 1575
2 1 1 1 -1 -1 50 0 -1 4.000 0 0 -1 0 0 2
	 3825 1575 3825 2025
2 1 0 1 -1 -1 50 0 -1 0.000 0 0 -1 0 0 4
	 225 1575 225 225 3825 225 3825 1575
2 1 1 1 -1 -1 50 0 -1 4.000 0 0 -1 0 0 2
	 225 1575 225 2025
2 1 0 1 -1 -1 50 0 -1 0.000 0 0 -1 0 0 2
	 225 675 3825 675
2 1 0 1 -1 -1 50 0 -1 0.000 0 0 -1 0 0 2
	 2025 225 2025 450
2 1 0 1 -1 -1 50 0 -1 0.000 0 0 -1 0 0 2
	 225 450 3825 450
2 1 0 1 -1 -1 50 0 -1 0.000 0 0 -1 0 0 2
	 1125 225 1125 450
2 1 0 1 -1 -1 50 0 -1 0.000 0 0 -1 0 0 2
	 2925 225 2925 450
2 2 0 0 0 6 51 -1 38 0.000 0 0 -1 0 0 5
	 225 225 3825 225 3825 2925 225 2925 225 225
2 2 0 1 0 0 52 -1 20 0.000 0 0 -1 0 0 5
	 270 270 3870 270 3870 2970 270 2970 270 270
4 1 -1 50 0 16 8 0.0000 4 135 720 2025 1125 Address [0]\001
4 1 -1 50 0 16 8 0.0000 4 105 600 2025 630 Reserved\001
4 1 -1 50 0 16 8 0.0000 4 135 990 2475 405 Routing Type=0\001
4 1 -1 50 0 16 8 0.0000 4 105 795 675 405 Next Header\001
4 1 -1 50 0 16 8 0.0000 4 105 750 1575 405 Hdr Ext Len\001
4 1 -1 50 0 16 8 0.0000 4 135 915 3375 405 Segments Left\001
4 1 -1 50 0 16 8 0.0000 4 135 1905 2025 2520 Address [(Hdr Ext Len / 2) - 1]\001
4 2 -1 50 0 16 8 0.0000 4 90 150 3825 180 31\001
4 0 -1 50 0 16 8 0.0000 4 90 150 2925 180 24\001
4 0 -1 50 0 16 8 0.0000 4 90 150 2025 180 16\001
4 0 -1 50 0 16 8 0.0000 4 90 75 1125 180 8\001
4 0 -1 50 0 16 8 0.0000 4 90 75 225 180 0\001
4 1 -1 50 0 16 8 0.0000 4 105 600 2025 1845 Reserved\001
