#FIG 3.2  Produced by xfig version 3.2.5c
Portrait
Center
Metric
A4      
100.00
Single
-2
1200 2
6 1576 900 2071 1395
2 2 0 1 -1 11 52 0 36 0.000 0 0 -1 0 0 5
	 1576 900 2026 900 2026 1350 1576 1350 1576 900
2 2 0 1 -1 0 55 0 20 0.000 0 0 -1 0 0 5
	 1621 945 2071 945 2071 1395 1621 1395 1621 945
2 2 0 1 0 6 51 -1 36 0.000 0 0 -1 0 0 5
	 1576 1035 1621 1035 1621 1215 1576 1215 1576 1035
2 2 0 1 0 6 51 -1 36 0.000 0 0 -1 0 0 5
	 1981 1035 2026 1035 2026 1215 1981 1215 1981 1035
2 2 0 1 0 6 51 -1 36 0.000 0 0 -1 0 0 5
	 1711 900 1891 900 1891 945 1711 945 1711 900
-6
6 2475 2025 3015 2520
2 2 0 1 -1 11 52 0 36 0.000 0 0 -1 0 0 5
	 2476 2025 2926 2025 2926 2475 2476 2475 2476 2025
2 2 0 1 -1 0 55 0 20 0.000 0 0 -1 0 0 5
	 2521 2070 2971 2070 2971 2520 2521 2520 2521 2070
2 2 0 1 0 6 51 -1 36 0.000 0 0 -1 0 0 5
	 2476 2160 2521 2160 2521 2340 2476 2340 2476 2160
2 2 0 1 0 6 51 -1 36 0.000 0 0 -1 0 0 5
	 2881 2160 2926 2160 2926 2340 2881 2340 2881 2160
2 2 0 1 0 6 51 -1 36 0.000 0 0 -1 0 0 5
	 2611 2025 2791 2025 2791 2070 2611 2070 2611 2025
2 2 0 1 0 6 51 -1 36 0.000 0 0 -1 0 0 5
	 2611 2475 2791 2475 2791 2430 2611 2430 2611 2475
-6
6 675 2025 1215 2520
2 2 0 1 -1 11 52 0 36 0.000 0 0 -1 0 0 5
	 676 2025 1126 2025 1126 2475 676 2475 676 2025
2 2 0 1 -1 0 55 0 20 0.000 0 0 -1 0 0 5
	 721 2070 1171 2070 1171 2520 721 2520 721 2070
2 2 0 1 0 6 51 -1 36 0.000 0 0 -1 0 0 5
	 676 2160 721 2160 721 2340 676 2340 676 2160
2 2 0 1 0 6 51 -1 36 0.000 0 0 -1 0 0 5
	 1081 2160 1126 2160 1126 2340 1081 2340 1081 2160
2 2 0 1 0 6 51 -1 36 0.000 0 0 -1 0 0 5
	 811 2025 991 2025 991 2070 811 2070 811 2025
2 2 0 1 0 6 51 -1 36 0.000 0 0 -1 0 0 5
	 811 2475 991 2475 991 2430 811 2430 811 2475
-6
6 1305 1470 2295 1710
4 1 -1 10 0 16 7 0.0000 4 135 720 1800 1710 inutiles\001
4 1 -1 10 0 16 7 0.0000 4 165 990 1800 1605 datagrammes\001
-6
2 1 0 1 0 7 50 -1 -1 0.000 0 0 -1 0 0 2
	 1575 1125 900 2025
2 1 0 1 0 7 50 -1 -1 0.000 0 0 -1 0 0 2
	 1125 2250 2475 2250
2 1 0 1 0 7 50 -1 -1 0.000 0 0 -1 0 0 2
	 2025 1125 2700 2025
2 1 0 1 0 7 50 -1 -1 0.000 0 0 -1 0 0 2
	 900 2430 900 2700
2 1 0 1 0 7 50 -1 -1 0.000 0 0 -1 0 0 2
	 2700 2475 2700 2700
2 1 0 1 0 7 50 -1 -1 0.000 0 0 -1 0 0 2
	 2925 2250 3105 2250
2 1 0 1 0 7 50 -1 -1 0.000 0 0 -1 0 0 2
	 675 2250 495 2250
2 1 0 1 0 7 50 -1 -1 0.000 0 0 -1 0 0 2
	 1800 900 1800 720
2 1 0 3 4 7 10 0 -1 0.000 0 0 7 1 0 2
	1 1 1.00 60.00 79.50
	 1845 675 1846 855
2 1 0 3 4 7 10 0 -1 0.000 0 0 7 1 0 2
	1 1 1.00 60.00 79.50
	 2745 2115 2745 2700
2 1 0 3 4 7 10 0 -1 0.000 0 0 7 1 0 2
	1 1 1.00 60.00 79.50
	 856 2115 856 2700
3 0 1 1 1 7 8 -1 -1 3.000 0 1 0 6
	1 0 1.00 60.00 79.50
	 1935 1755 2160 1935 2295 2385 2160 2475 2025 2475 1890 2340
	 0.000 1.000 1.000 1.000 1.000 0.000
3 0 1 1 1 7 8 -1 -1 3.000 0 1 0 3
	1 0 1.00 60.00 79.50
	 1665 1755 1575 1890 1620 2160
	 0.000 1.000 0.000
3 0 0 3 4 7 10 -1 -1 0.000 0 1 0 7
	1 1 1.00 60.00 79.50
	 1845 990 1845 1035 1800 1080 1665 1080 1575 1080 1485 1170
	 871 1992
	 0.000 1.000 1.000 1.000 1.000 1.000 0.000
3 0 0 3 4 7 10 -1 -1 0.000 0 1 0 7
	1 1 1.00 60.00 79.50
	 1845 990 1845 1035 1890 1080 1980 1080 2070 1080 2115 1170
	 2745 1980
	 0.000 1.000 1.000 1.000 1.000 1.000 0.000
3 0 0 3 4 7 10 0 -1 0.000 0 1 0 4
	1 1 1.00 60.00 79.50
	 2745 2115 2745 2295 2925 2295 3105 2295
	 0.000 1.000 1.000 0.000
3 0 0 3 4 7 10 0 -1 0.000 0 1 0 4
	1 1 1.00 60.00 79.50
	 2745 2160 2745 2295 2610 2295 1170 2295
	 0.000 1.000 1.000 0.000
3 0 0 3 4 7 10 0 -1 0.000 0 1 0 4
	1 1 1.00 60.00 79.50
	 856 2115 855 2205 1035 2205 2430 2205
	 0.000 1.000 1.000 0.000
3 0 0 3 4 7 10 0 -1 0.000 0 1 0 4
	1 1 1.00 60.00 79.50
	 856 2115 855 2205 720 2205 495 2205
	 0.000 1.000 1.000 0.000
4 1 -1 10 0 16 7 0.0000 4 135 90 990 2340 B\001
4 1 -1 10 0 16 7 0.0000 4 135 90 2610 2250 C\001
4 0 -1 10 0 16 7 0.0000 4 135 360 1890 765 S->G\001
4 1 -1 10 0 16 7 0.0000 4 135 90 1800 1305 A\001
