#FIG 3.2  Produced by xfig version 3.2.5c
Portrait
Center
Metric
A4      
100.00
Single
-2
1200 2
2 2 0 1 0 6 51 0 38 0.000 0 0 7 0 0 5
	 225 225 3825 225 3825 900 225 900 225 225
2 2 0 1 0 0 52 0 20 0.000 0 0 7 0 0 5
	 270 270 3870 270 3870 945 270 945 270 270
2 1 0 1 0 6 50 0 38 0.000 0 0 7 0 0 2
	 225 675 3825 675
2 1 0 1 0 6 50 0 38 0.000 0 0 7 0 0 2
	 2025 675 2025 900
4 1 0 50 0 16 8 0.0000 4 135 1260 2025 495 Query domain name\001
4 1 0 50 0 16 8 0.0000 4 135 750 2925 855 Query class\001
4 1 0 50 0 16 8 0.0000 4 135 690 1125 855 Query type\001
4 2 0 50 0 16 8 0.0000 4 90 150 3825 180 31\001
4 0 0 50 0 16 8 0.0000 4 90 150 2025 180 16\001
4 0 0 50 0 16 8 0.0000 4 90 75 225 180 0\001
