#FIG 3.2  Produced by xfig version 3.2.5c
Portrait
Center
Metric
A4      
100.00
Single
-2
1200 2
2 1 0 1 -1 -1 50 0 -1 0.000 0 0 -1 0 0 2
	 225 900 3825 900
2 1 0 1 -1 -1 50 0 -1 0.000 0 0 -1 0 0 2
	 225 675 3825 675
2 1 0 1 -1 -1 50 0 -1 0.000 0 0 -1 0 0 2
	 2025 675 2025 1125
2 1 0 1 -1 -1 50 0 -1 0.000 0 0 -1 0 0 2
	 225 1125 3825 1125
2 2 0 1 0 6 51 0 38 0.000 0 0 7 0 0 5
	 225 225 3825 225 3825 1575 225 1575 225 225
2 2 0 1 0 0 52 0 20 0.000 0 0 7 0 0 5
	 270 270 3870 270 3870 1620 270 1620 270 270
4 2 -1 50 0 16 8 0.0000 4 90 150 3825 180 31\001
4 0 -1 50 0 16 8 0.0000 4 90 150 2025 180 16\001
4 0 -1 50 0 16 8 0.0000 4 90 75 225 180 0\001
4 1 -1 50 0 16 8 0.0000 4 105 1485 2025 495 Resource domain name\001
4 1 -1 50 0 16 8 0.0000 4 105 360 2925 855 Class\001
4 1 -1 50 0 16 8 0.0000 4 135 1335 2925 1080 Resource data length\001
4 1 -1 50 0 16 8 0.0000 4 135 315 1125 855 Type\001
4 1 -1 50 0 16 8 0.0000 4 105 735 1125 1080 Time to live\001
4 1 -1 50 0 16 8 0.0000 4 105 915 2025 1395 Resource data\001
