#FIG 3.2  Produced by xfig version 3.2.5c
Landscape
Center
Metric
A4      
100.00
Single
-2
1200 2
0 32 #c6b797
0 33 #eff8ff
0 34 #dccba6
0 35 #404040
0 36 #808080
0 37 #c0c0c0
0 38 #e0e0e0
0 39 #8e8f8e
0 40 #aaaaaa
0 41 #555555
0 42 #c7c3c7
0 43 #565151
0 44 #8e8e8e
0 45 #d7d7d7
0 46 #85807d
0 47 #d2d2d2
0 48 #3a3a3a
0 49 #4573aa
0 50 #aeaeae
0 51 #7b79a5
0 52 #444444
0 53 #73758c
0 54 #f7f7f7
0 55 #414541
0 56 #635dce
0 57 #bebebe
0 58 #515151
0 59 #e7e3e7
0 60 #000049
0 61 #797979
0 62 #303430
0 63 #414141
0 64 #c7b696
0 65 #666666
0 66 #868686
0 67 #c7c7c7
0 68 #e7e7e7
0 69 #868286
0 70 #effbff
0 71 #9e9e9e
0 72 #717571
0 73 #aeaaae
0 74 #757575
0 75 #f3f3f3
0 76 #cccccc
0 77 #909090
0 78 #e6e4ce
0 79 #9b9b9b
0 80 #ce9100
0 81 #f762aa
0 82 #7070ff
0 83 #5f5f5f
0 84 #e2e2ee
0 85 #94949a
0 86 #dbdbdb
0 87 #a1a1b7
0 88 #9c0000
0 89 #ededed
0 90 #86acff
0 91 #fff2d3
0 92 #ffe4ae
0 93 #ffd279
0 94 #cfcfcf
0 95 #999999
0 96 #b2b2b2
0 97 #000000
0 98 #ffffff
0 99 #dd9d93
0 100 #f1ece0
0 101 #c3c3c3
0 102 #e2c8a8
0 103 #e1e1e1
0 104 #da7a1a
0 105 #f1e41a
0 106 #887dc2
0 107 #d6d6d6
0 108 #8c8ca5
0 109 #4a4a4a
0 110 #5a5a5a
0 111 #636363
0 112 #b79b73
0 113 #4193ff
0 114 #bf703b
0 115 #db7700
0 116 #dab800
0 117 #006400
0 118 #5a6b3b
0 119 #d3d3d3
0 120 #8e8ea4
0 121 #f3b95d
0 122 #89996b
0 123 #646464
0 124 #b7e6ff
0 125 #86c0ec
0 126 #bdbdbd
0 127 #d39552
0 128 #98d2fe
0 129 #8c6b6b
0 130 #8c9c6b
0 131 #f76b00
0 132 #5a6b39
0 133 #8c9c6b
0 134 #8c9c7b
0 135 #184a18
0 136 #adadad
0 137 #f7bd5a
0 138 #636b9c
0 139 #de0000
0 140 #adadad
0 141 #f7bd5a
0 142 #adadad
0 143 #f7bd5a
0 144 #636b9c
0 145 #526b29
0 146 #949494
0 147 #006300
0 148 #9ca5b5
0 149 #ff9400
0 150 #ff9400
0 151 #00634a
0 152 #7b844a
0 153 #63737b
0 154 #e7bd7b
0 155 #184a18
0 156 #f7bd5a
0 157 #dedede
0 158 #f3eed3
0 159 #f5ae5d
0 160 #95ce99
0 161 #b5157d
0 162 #eeeeee
0 163 #848484
0 164 #7b7b7b
0 165 #005a00
0 166 #e77373
0 167 #ffcb31
0 168 #29794a
0 169 #de2821
0 170 #2159c6
0 171 #f8f8f8
0 172 #e6e6e6
0 173 #a5b5c6
0 174 #6b6b94
0 175 #846b6b
0 176 #529c4a
0 177 #d6e7e7
0 178 #526363
0 179 #186b4a
0 180 #21845a
# Network bridge
6 1890 1170 2520 1253
6 2121 1191 2226 1232
1 3 0 1 0 0 19 0 -1 0.000 1 0.0000 2127 1211 6 6 2127 1211 2121 1211
1 3 0 1 0 0 19 0 -1 0.000 1 0.0000 2213 1211 6 6 2213 1211 2207 1211
2 1 0 2 0 0 18 0 -1 6.000 0 1 7 0 0 1
	 2145 1205
2 1 0 2 0 0 18 0 -1 6.000 0 1 7 0 0 1
	 2158 1205
2 1 0 2 0 0 18 0 -1 6.000 0 1 7 0 0 1
	 2170 1205
2 1 0 2 0 0 18 0 -1 6.000 0 1 7 0 0 1
	 2182 1205
2 1 0 2 0 0 18 0 -1 6.000 0 1 7 0 0 1
	 2195 1205
2 1 0 2 0 0 18 0 -1 6.000 0 1 7 0 0 1
	 2152 1217
2 1 0 2 0 0 18 0 -1 6.000 0 1 7 0 0 1
	 2164 1217
2 1 0 2 0 0 18 0 -1 6.000 0 1 7 0 0 1
	 2176 1217
2 1 0 2 0 0 18 0 -1 6.000 0 1 7 0 0 1
	 2188 1217
3 5 0 1 0 38 19 0 20 0.000 1 0 0 8
	 2139 1196 2133 1196 2139 1226 2145 1226 2195 1226 2200 1226
	 2207 1196 2200 1196
	 0.000 1.000 1.000 0.000 0.000 1.000 1.000 0.000
-6
6 1911 1180 1953 1243
1 3 0 0 0 14 19 0 20 0.000 1 0.0000 1932 1201 5 5 1932 1201 1937 1201
1 3 0 0 0 14 19 0 20 0.000 1 0.0000 1932 1222 5 5 1932 1222 1937 1222
-6
6 2079 1180 2121 1243
1 3 0 0 0 14 19 0 20 0.000 1 0.0000 2100 1201 5 5 2100 1201 2105 1201
1 3 0 0 0 14 19 0 20 0.000 1 0.0000 2100 1222 5 5 2100 1222 2105 1222
-6
6 2310 1196 2494 1226
6 2330 1201 2475 1222
2 1 0 2 0 0 18 0 -1 6.000 0 1 7 0 0 1
	 2334 1205
2 1 0 2 0 0 18 0 -1 6.000 0 1 7 0 0 1
	 2445 1205
2 1 0 2 0 0 18 0 -1 6.000 0 1 7 0 0 1
	 2458 1205
2 1 0 2 0 0 18 0 -1 6.000 0 1 7 0 0 1
	 2470 1205
2 1 0 2 0 0 18 0 -1 6.000 0 1 7 0 0 1
	 2439 1217
2 1 0 2 0 0 18 0 -1 6.000 0 1 7 0 0 1
	 2452 1217
2 1 0 2 0 0 18 0 -1 6.000 0 1 7 0 0 1
	 2464 1217
2 1 0 2 0 0 18 0 -1 6.000 0 1 7 0 0 1
	 2347 1205
2 1 0 2 0 0 18 0 -1 6.000 0 1 7 0 0 1
	 2359 1205
2 1 0 2 0 0 18 0 -1 6.000 0 1 7 0 0 1
	 2371 1205
2 1 0 2 0 0 18 0 -1 6.000 0 1 7 0 0 1
	 2384 1205
2 1 0 2 0 0 18 0 -1 6.000 0 1 7 0 0 1
	 2340 1217
2 1 0 2 0 0 18 0 -1 6.000 0 1 7 0 0 1
	 2353 1217
2 1 0 2 0 0 18 0 -1 6.000 0 1 7 0 0 1
	 2365 1217
2 1 0 2 0 0 18 0 -1 6.000 0 1 7 0 0 1
	 2377 1217
2 1 0 2 0 0 18 0 -1 6.000 0 1 7 0 0 1
	 2396 1205
2 1 0 2 0 0 18 0 -1 6.000 0 1 7 0 0 1
	 2409 1205
2 1 0 2 0 0 18 0 -1 6.000 0 1 7 0 0 1
	 2421 1205
2 1 0 2 0 0 18 0 -1 6.000 0 1 7 0 0 1
	 2433 1205
2 1 0 2 0 0 18 0 -1 6.000 0 1 7 0 0 1
	 2390 1217
2 1 0 2 0 0 18 0 -1 6.000 0 1 7 0 0 1
	 2402 1217
2 1 0 2 0 0 18 0 -1 6.000 0 1 7 0 0 1
	 2415 1217
2 1 0 2 0 0 18 0 -1 6.000 0 1 7 0 0 1
	 2427 1217
-6
1 3 0 1 0 0 19 0 -1 0.000 1 0.0000 2316 1211 6 6 2316 1211 2310 1211
1 3 0 1 0 0 19 0 -1 0.000 1 0.0000 2488 1211 6 6 2488 1211 2482 1211
3 5 0 1 0 38 19 0 20 0.000 1 0 0 8
	 2328 1196 2322 1196 2328 1226 2334 1226 2466 1226 2475 1226
	 2484 1196 2476 1196
	 0.000 1.000 1.000 0.000 0.000 1.000 1.000 0.000
-6
6 1953 1191 2058 1232
1 3 0 1 0 0 19 0 -1 0.000 1 0.0000 1959 1211 6 6 1959 1211 1953 1211
1 3 0 1 0 0 19 0 -1 0.000 1 0.0000 2045 1211 6 6 2045 1211 2038 1211
2 1 0 2 0 0 18 0 -1 6.000 0 1 7 0 0 1
	 1977 1205
2 1 0 2 0 0 18 0 -1 6.000 0 1 7 0 0 1
	 1990 1205
2 1 0 2 0 0 18 0 -1 6.000 0 1 7 0 0 1
	 2002 1205
2 1 0 2 0 0 18 0 -1 6.000 0 1 7 0 0 1
	 2014 1205
2 1 0 2 0 0 18 0 -1 6.000 0 1 7 0 0 1
	 2027 1205
2 1 0 2 0 0 18 0 -1 6.000 0 1 7 0 0 1
	 1984 1217
2 1 0 2 0 0 18 0 -1 6.000 0 1 7 0 0 1
	 1996 1217
2 1 0 2 0 0 18 0 -1 6.000 0 1 7 0 0 1
	 2008 1217
2 1 0 2 0 0 18 0 -1 6.000 0 1 7 0 0 1
	 2020 1217
3 5 0 1 0 38 19 0 20 0.000 1 0 0 8
	 1971 1196 1965 1196 1971 1226 1977 1226 2027 1226 2033 1226
	 2038 1196 2033 1196
	 0.000 1.000 1.000 0.000 0.000 1.000 1.000 0.000
-6
2 2 0 1 0 37 20 0 20 0.000 0 1 -1 0 0 5
	 1890 1170 2520 1170 2520 1253 1890 1253 1890 1170
2 2 0 1 36 14 19 0 -1 0.000 0 0 5 0 0 5
	 2247 1243 1911 1243 1911 1180 2247 1180 2247 1243
-6
# Server box
6 360 630 810 1413
6 410 913 760 1296
6 410 913 760 946
2 2 0 0 0 38 19 0 20 0.000 0 1 -1 0 0 5
	 410 930 760 930 760 946 410 946 410 930
2 2 0 0 0 35 19 0 20 0.000 0 1 -1 0 0 5
	 410 913 760 913 760 930 410 930 410 913
-6
6 410 963 760 997
2 2 0 0 0 38 19 0 20 0.000 0 1 -1 0 0 5
	 410 980 760 980 760 997 410 997 410 980
2 2 0 0 0 35 19 0 20 0.000 0 1 -1 0 0 5
	 410 963 760 963 760 980 410 980 410 963
-6
6 410 1013 760 1046
2 2 0 0 0 38 19 0 20 0.000 0 1 -1 0 0 5
	 410 1030 760 1030 760 1046 410 1046 410 1030
2 2 0 0 0 35 19 0 20 0.000 0 1 -1 0 0 5
	 410 1013 760 1013 760 1030 410 1030 410 1013
-6
6 410 1063 760 1096
2 2 0 0 0 38 19 0 20 0.000 0 1 -1 0 0 5
	 410 1080 760 1080 760 1096 410 1096 410 1080
2 2 0 0 0 35 19 0 20 0.000 0 1 -1 0 0 5
	 410 1063 760 1063 760 1080 410 1080 410 1063
-6
6 410 1113 760 1146
2 2 0 0 0 38 19 0 20 0.000 0 1 -1 0 0 5
	 410 1130 760 1130 760 1146 410 1146 410 1130
2 2 0 0 0 35 19 0 20 0.000 0 1 -1 0 0 5
	 410 1113 760 1113 760 1130 410 1130 410 1113
-6
6 410 1163 760 1196
2 2 0 0 0 38 19 0 20 0.000 0 1 -1 0 0 5
	 410 1180 760 1180 760 1196 410 1196 410 1180
2 2 0 0 0 35 19 0 20 0.000 0 1 -1 0 0 5
	 410 1163 760 1163 760 1180 410 1180 410 1163
-6
6 410 1213 760 1246
2 2 0 0 0 38 19 0 20 0.000 0 1 -1 0 0 5
	 410 1230 760 1230 760 1246 410 1246 410 1230
2 2 0 0 0 35 19 0 20 0.000 0 1 -1 0 0 5
	 410 1213 760 1213 760 1230 410 1230 410 1213
-6
6 410 1263 760 1296
2 2 0 0 0 38 19 0 20 0.000 0 1 -1 0 0 5
	 410 1280 760 1280 760 1296 410 1296 410 1280
2 2 0 0 0 35 19 0 20 0.000 0 1 -1 0 0 5
	 410 1263 760 1263 760 1280 410 1280 410 1263
-6
-6
6 410 697 760 830
6 410 797 760 830
2 2 0 0 0 38 19 0 20 0.000 0 1 -1 0 0 5
	 410 813 760 813 760 830 410 830 410 813
2 2 0 0 0 35 19 0 20 0.000 0 1 -1 0 0 5
	 410 797 760 797 760 813 410 813 410 797
-6
6 410 747 760 780
2 2 0 0 0 38 19 0 20 0.000 0 1 -1 0 0 5
	 410 763 760 763 760 780 410 780 410 763
2 2 0 0 0 35 19 0 20 0.000 0 1 -1 0 0 5
	 410 747 760 747 760 763 410 763 410 747
-6
6 410 697 760 730
2 2 0 0 0 38 19 0 20 0.000 0 1 -1 0 0 5
	 410 713 760 713 760 730 410 730 410 713
2 2 0 0 0 35 19 0 20 0.000 0 1 -1 0 0 5
	 410 697 760 697 760 713 410 713 410 697
-6
-6
2 2 0 1 0 35 19 0 20 0.000 0 1 -1 0 0 5
	 360 1346 810 1346 810 1413 360 1413 360 1346
2 1 0 1 0 37 19 0 20 0.000 0 1 -1 0 0 2
	 360 863 810 863
2 2 0 1 0 37 20 0 20 0.000 0 1 -1 0 0 5
	 360 630 810 630 810 1413 360 1413 360 630
-6
# Server box
6 1260 630 1710 1413
6 1310 913 1660 1296
6 1310 913 1660 946
2 2 0 0 0 38 19 0 20 0.000 0 1 -1 0 0 5
	 1310 930 1660 930 1660 946 1310 946 1310 930
2 2 0 0 0 35 19 0 20 0.000 0 1 -1 0 0 5
	 1310 913 1660 913 1660 930 1310 930 1310 913
-6
6 1310 963 1660 997
2 2 0 0 0 38 19 0 20 0.000 0 1 -1 0 0 5
	 1310 980 1660 980 1660 997 1310 997 1310 980
2 2 0 0 0 35 19 0 20 0.000 0 1 -1 0 0 5
	 1310 963 1660 963 1660 980 1310 980 1310 963
-6
6 1310 1013 1660 1046
2 2 0 0 0 38 19 0 20 0.000 0 1 -1 0 0 5
	 1310 1030 1660 1030 1660 1046 1310 1046 1310 1030
2 2 0 0 0 35 19 0 20 0.000 0 1 -1 0 0 5
	 1310 1013 1660 1013 1660 1030 1310 1030 1310 1013
-6
6 1310 1063 1660 1096
2 2 0 0 0 38 19 0 20 0.000 0 1 -1 0 0 5
	 1310 1080 1660 1080 1660 1096 1310 1096 1310 1080
2 2 0 0 0 35 19 0 20 0.000 0 1 -1 0 0 5
	 1310 1063 1660 1063 1660 1080 1310 1080 1310 1063
-6
6 1310 1113 1660 1146
2 2 0 0 0 38 19 0 20 0.000 0 1 -1 0 0 5
	 1310 1130 1660 1130 1660 1146 1310 1146 1310 1130
2 2 0 0 0 35 19 0 20 0.000 0 1 -1 0 0 5
	 1310 1113 1660 1113 1660 1130 1310 1130 1310 1113
-6
6 1310 1163 1660 1196
2 2 0 0 0 38 19 0 20 0.000 0 1 -1 0 0 5
	 1310 1180 1660 1180 1660 1196 1310 1196 1310 1180
2 2 0 0 0 35 19 0 20 0.000 0 1 -1 0 0 5
	 1310 1163 1660 1163 1660 1180 1310 1180 1310 1163
-6
6 1310 1213 1660 1246
2 2 0 0 0 38 19 0 20 0.000 0 1 -1 0 0 5
	 1310 1230 1660 1230 1660 1246 1310 1246 1310 1230
2 2 0 0 0 35 19 0 20 0.000 0 1 -1 0 0 5
	 1310 1213 1660 1213 1660 1230 1310 1230 1310 1213
-6
6 1310 1263 1660 1296
2 2 0 0 0 38 19 0 20 0.000 0 1 -1 0 0 5
	 1310 1280 1660 1280 1660 1296 1310 1296 1310 1280
2 2 0 0 0 35 19 0 20 0.000 0 1 -1 0 0 5
	 1310 1263 1660 1263 1660 1280 1310 1280 1310 1263
-6
-6
6 1310 697 1660 830
6 1310 797 1660 830
2 2 0 0 0 38 19 0 20 0.000 0 1 -1 0 0 5
	 1310 813 1660 813 1660 830 1310 830 1310 813
2 2 0 0 0 35 19 0 20 0.000 0 1 -1 0 0 5
	 1310 797 1660 797 1660 813 1310 813 1310 797
-6
6 1310 747 1660 780
2 2 0 0 0 38 19 0 20 0.000 0 1 -1 0 0 5
	 1310 763 1660 763 1660 780 1310 780 1310 763
2 2 0 0 0 35 19 0 20 0.000 0 1 -1 0 0 5
	 1310 747 1660 747 1660 763 1310 763 1310 747
-6
6 1310 697 1660 730
2 2 0 0 0 38 19 0 20 0.000 0 1 -1 0 0 5
	 1310 713 1660 713 1660 730 1310 730 1310 713
2 2 0 0 0 35 19 0 20 0.000 0 1 -1 0 0 5
	 1310 697 1660 697 1660 713 1310 713 1310 697
-6
-6
2 2 0 1 0 35 19 0 20 0.000 0 1 -1 0 0 5
	 1260 1346 1710 1346 1710 1413 1260 1413 1260 1346
2 1 0 1 0 37 19 0 20 0.000 0 1 -1 0 0 2
	 1260 863 1710 863
2 2 0 1 0 37 20 0 20 0.000 0 1 -1 0 0 5
	 1260 630 1710 630 1710 1413 1260 1413 1260 630
-6
# Desktop computer
6 810 1800 1260 2370
6 847 1809 1228 2158
2 2 0 1 0 38 20 0 20 0.000 2 0 7 0 0 5
	 847 1809 1228 1809 1228 2127 847 2127 847 1809
2 2 0 0 0 35 19 0 22 0.000 1 0 -1 0 0 5
	 1148 1841 1117 1841 1117 2095 1148 2095 1148 1841
2 2 0 0 0 35 19 0 24 0.000 1 0 -1 0 0 5
	 1117 1841 1085 1841 1085 2095 1117 2095 1117 1841
2 2 0 0 0 35 19 0 26 0.000 1 0 -1 0 0 5
	 1085 1841 1037 1841 1037 2095 1085 2095 1085 1841
2 2 0 0 0 35 19 0 28 0.000 1 0 -1 0 0 5
	 1037 1841 990 1841 990 2095 1037 2095 1037 1841
2 2 0 0 0 35 19 0 30 0.000 1 0 -1 0 0 5
	 990 1841 958 1841 958 2095 990 2095 990 1841
2 2 0 0 0 35 19 0 33 0.000 1 0 -1 0 0 5
	 958 1841 926 1841 926 2095 958 2095 958 1841
2 2 0 0 0 35 19 0 33 0.000 1 0 -1 0 0 5
	 926 1841 894 1841 894 2095 926 2095 926 1841
2 2 0 1 0 36 20 0 20 0.000 2 0 7 0 0 5
	 958 2127 1117 2127 1117 2143 958 2143 958 2127
2 2 0 1 0 36 20 0 20 0.000 2 0 -1 0 0 5
	 942 2143 1133 2143 1133 2158 942 2158 942 2143
2 2 0 0 0 35 19 0 20 0.000 1 0 7 0 0 5
	 1180 1841 1148 1841 1148 2095 1180 2095 1180 1841
3 5 0 0 0 37 18 0 20 0.000 0 0 0 4
	 879 1841 879 2095 894 2079 894 1857
	 0.000 0.000 0.000 0.000
3 5 0 0 0 7 18 0 20 0.000 0 0 0 5
	 879 2095 894 2079 1041 2086 1180 2079 1196 2095
	 0.000 0.000 -1.000 0.000 0.000
3 5 0 0 0 37 18 0 20 0.000 0 0 0 4
	 1196 1841 1196 2095 1180 2079 1180 1857
	 0.000 0.000 0.000 0.000
3 5 0 0 0 36 18 0 20 0.000 0 0 0 5
	 879 1841 894 1857 1041 1850 1180 1857 1196 1841
	 0.000 0.000 -1.000 0.000 0.000
-6
6 815 2270 1260 2365
2 3 0 1 0 38 20 0 20 0.000 2 0 7 0 0 7
	 863 2270 1212 2270 1260 2349 1260 2365 815 2365 815 2349
	 863 2270
2 1 0 1 0 37 19 0 20 0.000 2 0 -1 0 0 4
	 815 2349 815 2365 1260 2365 1260 2349
2 3 0 0 0 7 19 0 20 0.000 2 0 -1 0 0 5
	 879 2286 847 2333 1133 2333 1117 2286 879 2286
2 2 0 0 0 36 18 0 20 0.000 2 0 -1 0 0 5
	 847 2333 1133 2333 1133 2339 847 2339 847 2333
2 3 0 0 0 37 18 0 20 0.000 2 0 -1 0 0 9
	 873 2286 847 2333 894 2333 901 2317 890 2317 896 2301
	 886 2301 894 2286 873 2286
2 3 0 0 0 37 18 0 20 0.000 2 0 -1 0 0 10
	 1133 2333 1085 2333 1085 2317 1095 2317 1094 2301 1101 2301
	 1103 2301 1100 2286 1120 2286 1133 2333
2 3 0 0 0 7 19 0 20 0.000 2 0 -1 0 0 5
	 1196 2286 1133 2286 1148 2333 1228 2333 1196 2286
2 3 0 0 0 37 18 0 20 0.000 2 0 -1 0 0 7
	 1228 2333 1213 2333 1196 2295 1136 2295 1132 2286 1203 2286
	 1228 2333
2 2 0 0 0 36 18 0 20 0.000 2 0 -1 0 0 5
	 1148 2333 1228 2333 1228 2339 1148 2339 1148 2333
2 3 0 0 0 36 18 0 20 0.000 2 0 -1 0 0 5
	 1148 2333 1148 2339 1132 2290 1132 2286 1148 2333
-6
6 855 2158 1220 2254
6 1090 2175 1201 2207
6 1090 2175 1201 2207
2 1 0 1 36 -1 19 0 -1 0.000 2 0 -1 0 0 5
	 1090 2191 1090 2183 1124 2183 1124 2175 1166 2175
2 1 0 1 36 -1 19 0 -1 0.000 2 0 -1 0 0 3
	 1124 2207 1124 2191 1166 2191
2 1 0 1 36 -1 19 0 -1 0.000 2 0 -1 0 0 2
	 1166 2183 1201 2183
2 1 0 1 7 -1 19 0 -1 0.000 2 0 -1 0 0 2
	 1166 2175 1166 2183
2 1 0 1 7 -1 19 0 -1 0.000 2 0 -1 0 0 2
	 1090 2191 1124 2191
2 1 0 1 7 -1 19 0 -1 0.000 2 0 -1 0 0 5
	 1124 2207 1166 2207 1166 2191 1201 2191 1201 2183
2 1 0 1 36 -1 19 0 -1 0.000 2 0 -1 0 0 3
	 1175 2207 1192 2207 1192 2199
2 1 0 1 7 -1 19 0 -1 0.000 2 0 -1 0 0 3
	 1175 2207 1175 2199 1192 2199
-6
-6
2 2 0 1 0 35 20 0 20 0.000 2 0 -1 0 0 5
	 855 2254 902 2254 902 2246 855 2246 855 2254
2 2 0 1 0 35 20 0 20 0.000 2 0 -1 0 0 5
	 1172 2254 1220 2254 1220 2246 1172 2246 1172 2254
2 2 0 1 0 38 20 0 20 0.000 2 0 -1 0 0 5
	 855 2158 1220 2158 1220 2246 855 2246 855 2158
-6
-6
6 2340 1890 3870 2430
2 2 0 1 0 7 50 -1 -1 0.000 0 0 -1 0 0 5
	 2340 2025 3735 2025 3735 2430 2340 2430 2340 2025
4 0 0 50 -1 16 6 0.0000 4 75 765 2385 1980 Passerelle NAT\001
4 0 0 50 -1 16 6 0.0000 4 75 330 2385 2115 1.2.3.1\001
4 0 0 50 -1 16 6 0.0000 4 75 330 2385 2250 1.2.3.2\001
4 0 0 50 -1 16 6 0.0000 4 75 330 2385 2385 1.2.3.3\001
4 0 0 50 -1 16 6 0.0000 4 75 510 2745 2115 172.16.1.1\001
4 0 0 50 -1 16 6 0.0000 4 75 510 2745 2250 172.16.1.2\001
4 0 0 50 -1 16 6 0.0000 4 105 1110 2745 2385 172.16.1.0/24 dynamic\001
-6
6 2797 923 3933 1708
5 1 0 1 0 11 52 -1 37 0.000 0 0 0 0 3119.490 1202.707 2869 1323 3045 935 3397 1217
5 1 0 1 0 11 53 -1 37 0.000 0 0 0 0 3485.041 1163.959 3256 1147 3467 935 3714 1182
5 1 0 1 0 11 54 -1 37 0.000 0 0 0 0 3731.500 1234.500 3573 1111 3890 1111 3573 1358
5 1 0 1 0 11 55 -1 37 0.000 0 0 0 0 3502.000 1393.000 3678 1287 3608 1569 3326 1287
5 1 0 1 0 11 56 -1 37 0.000 0 1 0 0 3291.000 1446.000 3115 1252 3115 1640 3467 1252
5 1 0 1 0 11 57 -1 37 0.000 0 0 0 0 2991.500 1388.968 3150 1499 2833 1499 2904 1217
2 2 0 0 0 11 51 -1 37 0.000 0 0 -1 0 0 5
	 2974 1147 3643 1147 3643 1463 2974 1463 2974 1147
-6
2 1 0 1 0 7 50 -1 -1 0.000 0 0 -1 0 0 2
	 270 1620 2025 1620
2 1 0 1 0 7 50 -1 -1 0.000 0 0 -1 0 0 2
	 1980 1215 1980 1620
2 1 0 1 0 7 70 -1 -1 0.000 0 0 -1 0 0 3
	 2160 1215 2160 1440 2880 1440
2 1 0 1 0 7 50 -1 -1 0.000 0 0 -1 0 0 2
	 1035 1620 1035 1845
2 1 0 1 0 7 50 -1 -1 0.000 0 0 -1 0 0 2
	 585 1620 585 1350
2 1 0 1 0 7 50 -1 -1 0.000 0 0 -1 0 0 2
	 1485 1620 1485 1350
3 0 0 1 0 7 50 -1 -1 0.000 0 1 0 4
	1 1 1.00 60.00 120.00
	 2340 2025 2205 1935 2070 1800 2070 1305
	 0.000 1.000 1.000 0.000
4 1 0 50 -1 16 6 0.0000 4 75 660 1620 1710 172.16.1.0/24\001
4 0 0 50 -1 16 6 0.0000 4 75 90 1530 1575 .2\001
4 0 0 50 -1 16 6 0.0000 4 75 90 1080 1755 .3\001
4 0 0 50 -1 16 6 0.0000 4 75 90 630 1575 .1\001
4 1 0 50 -1 16 6 0.0000 4 60 120 585 585 ns\001
4 1 0 50 -1 16 6 0.0000 4 60 225 1485 585 www\001
4 1 0 48 -1 17 8 0.0000 4 105 480 3330 1305 Internet\001
4 1 0 50 -1 16 6 0.0000 4 75 480 2475 1530 1.2.3.0/28\001
