#FIG 3.2  Produced by xfig version 3.2.5c
Portrait
Center
Metric
A4      
100.00
Single
-2
1200 2
0 32 #c6b797
0 33 #eff8ff
0 34 #dccba6
0 35 #404040
0 36 #808080
0 37 #c0c0c0
0 38 #e0e0e0
0 39 #8e8f8e
0 40 #aaaaaa
0 41 #555555
0 42 #bebebe
0 43 #515151
0 44 #e7e3e7
0 45 #000049
0 46 #797979
0 47 #303430
0 48 #414141
0 49 #c7b696
0 50 #8e8e8e
0 51 #414541
0 52 #8e8e8e
0 53 #cccccc
0 54 #868286
0 55 #c7c3c7
0 56 #444444
0 57 #868686
0 58 #c7c7c7
0 59 #e7e7e7
0 60 #f7f7f7
0 61 #9e9e9e
0 62 #717571
0 63 #effbff
0 64 #666666
0 65 #000000
0 66 #ffffff
0 67 #dd9d93
0 68 #f1ece0
0 69 #c3c3c3
0 70 #e2c8a8
0 71 #e1e1e1
0 72 #d2d2d2
0 73 #ededed
0 74 #da7a1a
0 75 #f1e41a
0 76 #887dc2
0 77 #d6d6d6
0 78 #8c8ca5
0 79 #4a4a4a
0 80 #5a5a5a
0 81 #636363
0 82 #b79b73
0 83 #4193ff
0 84 #bf703b
0 85 #db7700
0 86 #dab800
0 87 #006400
0 88 #5a6b3b
0 89 #d3d3d3
0 90 #8e8ea4
0 91 #f3b95d
0 92 #89996b
0 93 #646464
0 94 #b7e6ff
0 95 #86c0ec
0 96 #bdbdbd
0 97 #d39552
0 98 #98d2fe
0 99 #8c6b6b
0 100 #eeeeee
0 101 #848484
0 102 #7b7b7b
0 103 #005a00
0 104 #e77373
0 105 #ffcb31
0 106 #29794a
0 107 #de2821
0 108 #2159c6
0 109 #f8f8f8
0 110 #e6e6e6
0 111 #a5b5c6
0 112 #6b6b94
0 113 #846b6b
0 114 #529c4a
0 115 #d6e7e7
0 116 #526363
0 117 #186b4a
0 118 #21845a
0 119 #f3eed3
0 120 #f5ae5d
0 121 #95ce99
0 122 #b5157d
0 123 #5a6b39
0 124 #8c9c6b
0 125 #8c9c7b
0 126 #184a18
0 127 #adadad
0 128 #f7bd5a
0 129 #636b9c
0 130 #de0000
0 131 #adadad
0 132 #f7bd5a
0 133 #adadad
0 134 #f7bd5a
0 135 #636b9c
0 136 #526b29
0 137 #949494
0 138 #006300
0 139 #9ca5b5
0 140 #ff9400
0 141 #ff9400
0 142 #00634a
0 143 #7b844a
0 144 #63737b
0 145 #e7bd7b
0 146 #184a18
0 147 #f7bd5a
0 148 #dedede
0 149 #f76b00
0 150 #565151
0 151 #d7d7d7
0 152 #85807d
0 153 #3a3a3a
0 154 #4573aa
0 155 #aeaeae
0 156 #7b79a5
0 157 #73758c
0 158 #635dce
# Server box
6 236 180 675 945
6 285 457 626 831
6 285 457 626 489
2 2 0 0 0 38 19 0 20 0.000 0 1 -1 0 0 5
	 285 473 626 473 626 489 285 489 285 473
2 2 0 0 0 35 19 0 20 0.000 0 1 -1 0 0 5
	 285 457 626 457 626 473 285 473 285 457
-6
6 285 506 626 538
2 2 0 0 0 38 19 0 20 0.000 0 1 -1 0 0 5
	 285 522 626 522 626 538 285 538 285 522
2 2 0 0 0 35 19 0 20 0.000 0 1 -1 0 0 5
	 285 506 626 506 626 522 285 522 285 506
-6
6 285 554 626 587
2 2 0 0 0 38 19 0 20 0.000 0 1 -1 0 0 5
	 285 571 626 571 626 587 285 587 285 571
2 2 0 0 0 35 19 0 20 0.000 0 1 -1 0 0 5
	 285 554 626 554 626 571 285 571 285 554
-6
6 285 603 626 636
2 2 0 0 0 38 19 0 20 0.000 0 1 -1 0 0 5
	 285 619 626 619 626 636 285 636 285 619
2 2 0 0 0 35 19 0 20 0.000 0 1 -1 0 0 5
	 285 603 626 603 626 619 285 619 285 603
-6
6 285 652 626 685
2 2 0 0 0 38 19 0 20 0.000 0 1 -1 0 0 5
	 285 668 626 668 626 685 285 685 285 668
2 2 0 0 0 35 19 0 20 0.000 0 1 -1 0 0 5
	 285 652 626 652 626 668 285 668 285 652
-6
6 285 701 626 733
2 2 0 0 0 38 19 0 20 0.000 0 1 -1 0 0 5
	 285 717 626 717 626 733 285 733 285 717
2 2 0 0 0 35 19 0 20 0.000 0 1 -1 0 0 5
	 285 701 626 701 626 717 285 717 285 701
-6
6 285 750 626 782
2 2 0 0 0 38 19 0 20 0.000 0 1 -1 0 0 5
	 285 766 626 766 626 782 285 782 285 766
2 2 0 0 0 35 19 0 20 0.000 0 1 -1 0 0 5
	 285 750 626 750 626 766 285 766 285 750
-6
6 285 799 626 831
2 2 0 0 0 38 19 0 20 0.000 0 1 -1 0 0 5
	 285 815 626 815 626 831 285 831 285 815
2 2 0 0 0 35 19 0 20 0.000 0 1 -1 0 0 5
	 285 799 626 799 626 815 285 815 285 799
-6
-6
6 285 245 626 375
6 285 343 626 375
2 2 0 0 0 38 19 0 20 0.000 0 1 -1 0 0 5
	 285 359 626 359 626 375 285 375 285 359
2 2 0 0 0 35 19 0 20 0.000 0 1 -1 0 0 5
	 285 343 626 343 626 359 285 359 285 343
-6
6 285 294 626 326
2 2 0 0 0 38 19 0 20 0.000 0 1 -1 0 0 5
	 285 310 626 310 626 326 285 326 285 310
2 2 0 0 0 35 19 0 20 0.000 0 1 -1 0 0 5
	 285 294 626 294 626 310 285 310 285 294
-6
6 285 245 626 278
2 2 0 0 0 38 19 0 20 0.000 0 1 -1 0 0 5
	 285 261 626 261 626 278 285 278 285 261
2 2 0 0 0 35 19 0 20 0.000 0 1 -1 0 0 5
	 285 245 626 245 626 261 285 261 285 245
-6
-6
2 2 0 1 0 35 19 0 20 0.000 0 1 -1 0 0 5
	 236 880 675 880 675 945 236 945 236 880
2 1 0 1 0 37 19 0 20 0.000 0 1 -1 0 0 2
	 236 408 675 408
2 2 0 1 0 37 20 0 20 0.000 0 1 -1 0 0 5
	 236 180 675 180 675 945 236 945 236 180
-6
# Desktop computer
6 1575 360 2036 945
6 1613 370 2003 728
2 2 0 1 0 38 20 0 20 0.000 2 0 7 0 0 5
	 1613 370 2003 370 2003 695 1613 695 1613 370
2 2 0 0 0 35 19 0 22 0.000 1 0 -1 0 0 5
	 1922 402 1889 402 1889 663 1922 663 1922 402
2 2 0 0 0 35 19 0 24 0.000 1 0 -1 0 0 5
	 1889 402 1857 402 1857 663 1889 663 1889 402
2 2 0 0 0 35 19 0 26 0.000 1 0 -1 0 0 5
	 1857 402 1808 402 1808 663 1857 663 1857 402
2 2 0 0 0 35 19 0 28 0.000 1 0 -1 0 0 5
	 1808 402 1759 402 1759 663 1808 663 1808 402
2 2 0 0 0 35 19 0 30 0.000 1 0 -1 0 0 5
	 1759 402 1727 402 1727 663 1759 663 1759 402
2 2 0 0 0 35 19 0 33 0.000 1 0 -1 0 0 5
	 1727 402 1694 402 1694 663 1727 663 1727 402
2 2 0 0 0 35 19 0 33 0.000 1 0 -1 0 0 5
	 1694 402 1662 402 1662 663 1694 663 1694 402
2 2 0 1 0 36 20 0 20 0.000 2 0 7 0 0 5
	 1727 695 1889 695 1889 712 1727 712 1727 695
2 2 0 1 0 36 20 0 20 0.000 2 0 -1 0 0 5
	 1710 712 1906 712 1906 728 1710 728 1710 712
2 2 0 0 0 35 19 0 20 0.000 1 0 7 0 0 5
	 1954 402 1922 402 1922 663 1954 663 1954 402
3 5 0 0 0 37 18 0 20 0.000 0 0 0 4
	 1645 402 1645 663 1662 646 1662 418
	 0.000 0.000 0.000 0.000
3 5 0 0 0 7 18 0 20 0.000 0 0 0 5
	 1645 663 1662 646 1811 653 1954 646 1971 663
	 0.000 0.000 -1.000 0.000 0.000
3 5 0 0 0 37 18 0 20 0.000 0 0 0 4
	 1971 402 1971 663 1954 646 1954 418
	 0.000 0.000 0.000 0.000
3 5 0 0 0 36 18 0 20 0.000 0 0 0 5
	 1645 402 1662 418 1811 412 1954 418 1971 402
	 0.000 0.000 -1.000 0.000 0.000
-6
6 1580 842 2036 940
2 3 0 1 0 38 20 0 20 0.000 2 0 7 0 0 7
	 1629 842 1987 842 2036 924 2036 940 1580 940 1580 924
	 1629 842
2 1 0 1 0 37 19 0 20 0.000 2 0 -1 0 0 4
	 1580 924 1580 940 2036 940 2036 924
2 3 0 0 0 7 19 0 20 0.000 2 0 -1 0 0 5
	 1645 858 1613 907 1906 907 1889 858 1645 858
2 2 0 0 0 36 18 0 20 0.000 2 0 -1 0 0 5
	 1613 907 1906 907 1906 913 1613 913 1613 907
2 3 0 0 0 37 18 0 20 0.000 2 0 -1 0 0 9
	 1639 858 1613 907 1662 907 1668 891 1657 891 1664 875
	 1653 875 1662 858 1639 858
2 3 0 0 0 37 18 0 20 0.000 2 0 -1 0 0 10
	 1906 907 1857 907 1857 891 1867 891 1866 875 1873 875
	 1875 875 1872 858 1892 858 1906 907
2 3 0 0 0 7 19 0 20 0.000 2 0 -1 0 0 5
	 1971 858 1906 858 1922 907 2003 907 1971 858
2 3 0 0 0 37 18 0 20 0.000 2 0 -1 0 0 7
	 2003 907 1988 907 1971 868 1909 868 1905 858 1977 858
	 2003 907
2 2 0 0 0 36 18 0 20 0.000 2 0 -1 0 0 5
	 1922 907 2003 907 2003 913 1922 913 1922 907
2 3 0 0 0 36 18 0 20 0.000 2 0 -1 0 0 5
	 1922 907 1921 913 1905 863 1905 859 1922 907
-6
6 1621 728 1995 826
6 1862 745 1975 777
6 1862 745 1975 777
2 1 0 1 36 -1 19 0 -1 0.000 2 0 -1 0 0 5
	 1862 761 1862 753 1897 753 1897 745 1940 745
2 1 0 1 36 -1 19 0 -1 0.000 2 0 -1 0 0 3
	 1897 777 1897 761 1940 761
2 1 0 1 36 -1 19 0 -1 0.000 2 0 -1 0 0 2
	 1940 753 1975 753
2 1 0 1 7 -1 19 0 -1 0.000 2 0 -1 0 0 2
	 1940 745 1940 753
2 1 0 1 7 -1 19 0 -1 0.000 2 0 -1 0 0 2
	 1862 761 1897 761
2 1 0 1 7 -1 19 0 -1 0.000 2 0 -1 0 0 5
	 1897 777 1940 777 1940 761 1975 761 1975 753
2 1 0 1 36 -1 19 0 -1 0.000 2 0 -1 0 0 3
	 1949 777 1967 777 1967 769
2 1 0 1 7 -1 19 0 -1 0.000 2 0 -1 0 0 3
	 1949 777 1949 769 1967 769
-6
-6
2 2 0 1 0 35 20 0 20 0.000 2 0 -1 0 0 5
	 1621 826 1670 826 1670 817 1621 817 1621 826
2 2 0 1 0 35 20 0 20 0.000 2 0 -1 0 0 5
	 1946 826 1995 826 1995 817 1946 817 1946 826
2 2 0 1 0 38 20 0 20 0.000 2 0 -1 0 0 5
	 1621 728 1995 728 1995 818 1621 818 1621 728
-6
-6
# An icon for a file, a disk or a SGBD
# drawn by P. David
6 2115 450 2475 720
1 1 0 1 0 31 49 0 36 0.000 1 0.0000 2295 488 180 38 2295 488 2475 488
1 1 0 1 0 31 51 0 36 0.000 1 0.0000 2295 682 180 38 2295 682 2475 682
2 1 0 1 0 31 49 0 36 0.000 0 0 -1 0 0 2
	 2115 488 2115 682
2 1 0 1 0 31 49 0 36 0.000 0 0 -1 0 0 2
	 2475 488 2475 682
2 2 0 0 7 31 50 0 36 0.000 0 0 -1 0 0 5
	 2115 488 2475 488 2475 682 2115 682 2115 488
-6
# An icon for a file, a disk or a SGBD
# drawn by P. David
6 765 315 1125 585
1 1 0 1 0 31 49 0 36 0.000 1 0.0000 945 353 180 38 945 353 1125 353
1 1 0 1 0 31 51 0 36 0.000 1 0.0000 945 547 180 38 945 547 1125 547
2 1 0 1 0 31 49 0 36 0.000 0 0 -1 0 0 2
	 765 353 765 547
2 1 0 1 0 31 49 0 36 0.000 0 0 -1 0 0 2
	 1125 353 1125 547
2 2 0 0 7 31 50 0 36 0.000 0 0 -1 0 0 5
	 765 353 1125 353 1125 547 765 547 765 353
-6
# An icon for a file, a disk or a SGBD
# drawn by P. David
6 765 630 1125 900
1 1 0 1 0 31 49 0 36 0.000 1 0.0000 945 668 180 38 945 668 1125 668
1 1 0 1 0 31 51 0 36 0.000 1 0.0000 945 862 180 38 945 862 1125 862
2 1 0 1 0 31 49 0 36 0.000 0 0 -1 0 0 2
	 765 668 765 862
2 1 0 1 0 31 49 0 36 0.000 0 0 -1 0 0 2
	 1125 668 1125 862
2 2 0 0 7 31 50 0 36 0.000 0 0 -1 0 0 5
	 765 668 1125 668 1125 862 765 862 765 668
-6
# Server box
6 450 1260 889 2025
6 499 1537 840 1911
6 499 1537 840 1569
2 2 0 0 0 38 19 0 20 0.000 0 1 -1 0 0 5
	 499 1553 840 1553 840 1569 499 1569 499 1553
2 2 0 0 0 35 19 0 20 0.000 0 1 -1 0 0 5
	 499 1537 840 1537 840 1553 499 1553 499 1537
-6
6 499 1586 840 1618
2 2 0 0 0 38 19 0 20 0.000 0 1 -1 0 0 5
	 499 1602 840 1602 840 1618 499 1618 499 1602
2 2 0 0 0 35 19 0 20 0.000 0 1 -1 0 0 5
	 499 1586 840 1586 840 1602 499 1602 499 1586
-6
6 499 1634 840 1667
2 2 0 0 0 38 19 0 20 0.000 0 1 -1 0 0 5
	 499 1651 840 1651 840 1667 499 1667 499 1651
2 2 0 0 0 35 19 0 20 0.000 0 1 -1 0 0 5
	 499 1634 840 1634 840 1651 499 1651 499 1634
-6
6 499 1683 840 1716
2 2 0 0 0 38 19 0 20 0.000 0 1 -1 0 0 5
	 499 1699 840 1699 840 1716 499 1716 499 1699
2 2 0 0 0 35 19 0 20 0.000 0 1 -1 0 0 5
	 499 1683 840 1683 840 1699 499 1699 499 1683
-6
6 499 1732 840 1765
2 2 0 0 0 38 19 0 20 0.000 0 1 -1 0 0 5
	 499 1748 840 1748 840 1765 499 1765 499 1748
2 2 0 0 0 35 19 0 20 0.000 0 1 -1 0 0 5
	 499 1732 840 1732 840 1748 499 1748 499 1732
-6
6 499 1781 840 1813
2 2 0 0 0 38 19 0 20 0.000 0 1 -1 0 0 5
	 499 1797 840 1797 840 1813 499 1813 499 1797
2 2 0 0 0 35 19 0 20 0.000 0 1 -1 0 0 5
	 499 1781 840 1781 840 1797 499 1797 499 1781
-6
6 499 1830 840 1862
2 2 0 0 0 38 19 0 20 0.000 0 1 -1 0 0 5
	 499 1846 840 1846 840 1862 499 1862 499 1846
2 2 0 0 0 35 19 0 20 0.000 0 1 -1 0 0 5
	 499 1830 840 1830 840 1846 499 1846 499 1830
-6
6 499 1879 840 1911
2 2 0 0 0 38 19 0 20 0.000 0 1 -1 0 0 5
	 499 1895 840 1895 840 1911 499 1911 499 1895
2 2 0 0 0 35 19 0 20 0.000 0 1 -1 0 0 5
	 499 1879 840 1879 840 1895 499 1895 499 1879
-6
-6
6 499 1325 840 1455
6 499 1423 840 1455
2 2 0 0 0 38 19 0 20 0.000 0 1 -1 0 0 5
	 499 1439 840 1439 840 1455 499 1455 499 1439
2 2 0 0 0 35 19 0 20 0.000 0 1 -1 0 0 5
	 499 1423 840 1423 840 1439 499 1439 499 1423
-6
6 499 1374 840 1406
2 2 0 0 0 38 19 0 20 0.000 0 1 -1 0 0 5
	 499 1390 840 1390 840 1406 499 1406 499 1390
2 2 0 0 0 35 19 0 20 0.000 0 1 -1 0 0 5
	 499 1374 840 1374 840 1390 499 1390 499 1374
-6
6 499 1325 840 1358
2 2 0 0 0 38 19 0 20 0.000 0 1 -1 0 0 5
	 499 1341 840 1341 840 1358 499 1358 499 1341
2 2 0 0 0 35 19 0 20 0.000 0 1 -1 0 0 5
	 499 1325 840 1325 840 1341 499 1341 499 1325
-6
-6
2 2 0 1 0 35 19 0 20 0.000 0 1 -1 0 0 5
	 450 1960 889 1960 889 2025 450 2025 450 1960
2 1 0 1 0 37 19 0 20 0.000 0 1 -1 0 0 2
	 450 1488 889 1488
2 2 0 1 0 37 20 0 20 0.000 0 1 -1 0 0 5
	 450 1260 889 1260 889 2025 450 2025 450 1260
-6
# An icon for a file, a disk or a SGBD
# drawn by P. David
6 990 1395 1350 1665
1 1 0 1 0 31 49 0 36 0.000 1 0.0000 1170 1433 180 38 1170 1433 1350 1433
1 1 0 1 0 31 51 0 36 0.000 1 0.0000 1170 1627 180 38 1170 1627 1350 1627
2 1 0 1 0 31 49 0 36 0.000 0 0 -1 0 0 2
	 990 1433 990 1627
2 1 0 1 0 31 49 0 36 0.000 0 0 -1 0 0 2
	 1350 1433 1350 1627
2 2 0 0 7 31 50 0 36 0.000 0 0 -1 0 0 5
	 990 1433 1350 1433 1350 1627 990 1627 990 1433
-6
# Desktop computer
6 1800 1305 2261 1890
6 1838 1315 2228 1673
2 2 0 1 0 38 20 0 20 0.000 2 0 7 0 0 5
	 1838 1315 2228 1315 2228 1640 1838 1640 1838 1315
2 2 0 0 0 35 19 0 22 0.000 1 0 -1 0 0 5
	 2147 1347 2114 1347 2114 1608 2147 1608 2147 1347
2 2 0 0 0 35 19 0 24 0.000 1 0 -1 0 0 5
	 2114 1347 2082 1347 2082 1608 2114 1608 2114 1347
2 2 0 0 0 35 19 0 26 0.000 1 0 -1 0 0 5
	 2082 1347 2033 1347 2033 1608 2082 1608 2082 1347
2 2 0 0 0 35 19 0 28 0.000 1 0 -1 0 0 5
	 2033 1347 1984 1347 1984 1608 2033 1608 2033 1347
2 2 0 0 0 35 19 0 30 0.000 1 0 -1 0 0 5
	 1984 1347 1952 1347 1952 1608 1984 1608 1984 1347
2 2 0 0 0 35 19 0 33 0.000 1 0 -1 0 0 5
	 1952 1347 1919 1347 1919 1608 1952 1608 1952 1347
2 2 0 0 0 35 19 0 33 0.000 1 0 -1 0 0 5
	 1919 1347 1887 1347 1887 1608 1919 1608 1919 1347
2 2 0 1 0 36 20 0 20 0.000 2 0 7 0 0 5
	 1952 1640 2114 1640 2114 1657 1952 1657 1952 1640
2 2 0 1 0 36 20 0 20 0.000 2 0 -1 0 0 5
	 1935 1657 2131 1657 2131 1673 1935 1673 1935 1657
2 2 0 0 0 35 19 0 20 0.000 1 0 7 0 0 5
	 2179 1347 2147 1347 2147 1608 2179 1608 2179 1347
3 5 0 0 0 37 18 0 20 0.000 0 0 0 4
	 1870 1347 1870 1608 1887 1591 1887 1363
	 0.000 0.000 0.000 0.000
3 5 0 0 0 7 18 0 20 0.000 0 0 0 5
	 1870 1608 1887 1591 2036 1598 2179 1591 2196 1608
	 0.000 0.000 -1.000 0.000 0.000
3 5 0 0 0 37 18 0 20 0.000 0 0 0 4
	 2196 1347 2196 1608 2179 1591 2179 1363
	 0.000 0.000 0.000 0.000
3 5 0 0 0 36 18 0 20 0.000 0 0 0 5
	 1870 1347 1887 1363 2036 1357 2179 1363 2196 1347
	 0.000 0.000 -1.000 0.000 0.000
-6
6 1805 1787 2261 1885
2 3 0 1 0 38 20 0 20 0.000 2 0 7 0 0 7
	 1854 1787 2212 1787 2261 1869 2261 1885 1805 1885 1805 1869
	 1854 1787
2 1 0 1 0 37 19 0 20 0.000 2 0 -1 0 0 4
	 1805 1869 1805 1885 2261 1885 2261 1869
2 3 0 0 0 7 19 0 20 0.000 2 0 -1 0 0 5
	 1870 1803 1838 1852 2131 1852 2114 1803 1870 1803
2 2 0 0 0 36 18 0 20 0.000 2 0 -1 0 0 5
	 1838 1852 2131 1852 2131 1858 1838 1858 1838 1852
2 3 0 0 0 37 18 0 20 0.000 2 0 -1 0 0 9
	 1864 1803 1838 1852 1887 1852 1893 1836 1882 1836 1889 1820
	 1878 1820 1887 1803 1864 1803
2 3 0 0 0 37 18 0 20 0.000 2 0 -1 0 0 10
	 2131 1852 2082 1852 2082 1836 2092 1836 2091 1820 2098 1820
	 2100 1820 2097 1803 2117 1803 2131 1852
2 3 0 0 0 7 19 0 20 0.000 2 0 -1 0 0 5
	 2196 1803 2131 1803 2147 1852 2228 1852 2196 1803
2 3 0 0 0 37 18 0 20 0.000 2 0 -1 0 0 7
	 2228 1852 2213 1852 2196 1813 2134 1813 2130 1803 2202 1803
	 2228 1852
2 2 0 0 0 36 18 0 20 0.000 2 0 -1 0 0 5
	 2147 1852 2228 1852 2228 1858 2147 1858 2147 1852
2 3 0 0 0 36 18 0 20 0.000 2 0 -1 0 0 5
	 2147 1852 2146 1858 2130 1808 2130 1804 2147 1852
-6
6 1846 1673 2220 1771
6 2087 1690 2200 1722
6 2087 1690 2200 1722
2 1 0 1 36 -1 19 0 -1 0.000 2 0 -1 0 0 5
	 2087 1706 2087 1698 2122 1698 2122 1690 2165 1690
2 1 0 1 36 -1 19 0 -1 0.000 2 0 -1 0 0 3
	 2122 1722 2122 1706 2165 1706
2 1 0 1 36 -1 19 0 -1 0.000 2 0 -1 0 0 2
	 2165 1698 2200 1698
2 1 0 1 7 -1 19 0 -1 0.000 2 0 -1 0 0 2
	 2165 1690 2165 1698
2 1 0 1 7 -1 19 0 -1 0.000 2 0 -1 0 0 2
	 2087 1706 2122 1706
2 1 0 1 7 -1 19 0 -1 0.000 2 0 -1 0 0 5
	 2122 1722 2165 1722 2165 1706 2200 1706 2200 1698
2 1 0 1 36 -1 19 0 -1 0.000 2 0 -1 0 0 3
	 2174 1722 2192 1722 2192 1714
2 1 0 1 7 -1 19 0 -1 0.000 2 0 -1 0 0 3
	 2174 1722 2174 1714 2192 1714
-6
-6
2 2 0 1 0 35 20 0 20 0.000 2 0 -1 0 0 5
	 1846 1771 1895 1771 1895 1762 1846 1762 1846 1771
2 2 0 1 0 35 20 0 20 0.000 2 0 -1 0 0 5
	 2171 1771 2220 1771 2220 1762 2171 1762 2171 1771
2 2 0 1 0 38 20 0 20 0.000 2 0 -1 0 0 5
	 1846 1673 2220 1673 2220 1763 1846 1763 1846 1673
-6
-6
2 1 0 1 -1 -1 70 0 -1 0.000 0 0 -1 0 0 2
	 180 1125 2745 1125
2 1 0 1 -1 -1 70 0 -1 0.000 0 0 -1 0 0 2
	 450 900 450 1125
2 1 0 1 -1 -1 70 0 -1 0.000 0 0 -1 0 0 2
	 675 1125 675 1350
2 1 0 1 -1 -1 70 0 -1 0.000 0 0 -1 0 0 2
	 1800 900 1800 1125
2 1 0 1 -1 -1 70 0 -1 0.000 0 0 -1 0 0 2
	 2025 1125 2025 1350
2 1 0 1 0 31 70 -1 36 0.000 0 0 -1 0 0 2
	 585 450 945 450
2 1 0 1 0 31 70 -1 36 0.000 0 0 -1 0 0 2
	 585 765 945 765
2 1 0 1 0 31 70 -1 36 0.000 0 0 -1 0 0 2
	 810 1530 1170 1530
2 1 0 1 0 31 70 -1 36 0.000 0 0 -1 0 0 2
	 1890 585 2250 585
4 1 0 70 -1 16 7 0.0000 4 165 1710 2025 2070 station sans disque\001
