#FIG 3.2  Produced by xfig version 3.2.7b
Portrait
Center
Metric
A4
100.00
Single
-3
1200 2
6 1035 1710 1665 2160
1 1 0 1 0 31 39 -1 36 0.000 1 0.0000 1125 1935 90 225 1125 1935 1215 1935
1 1 0 1 0 31 42 -1 36 0.000 1 0.0000 1575 1935 90 225 1575 1935 1665 1935
2 1 0 1 0 31 40 -1 36 0.000 0 0 -1 0 0 2
	 1125 1710 1575 1710
2 1 0 1 0 31 40 -1 36 0.000 0 0 -1 0 0 2
	 1125 2160 1575 2160
2 2 0 0 7 31 41 -1 36 0.000 0 0 -1 0 0 5
	 1125 1710 1575 1710 1575 2160 1125 2160 1125 1710
-6
6 855 1170 1485 1620
1 1 0 1 0 31 39 -1 36 0.000 1 0.0000 945 1395 90 225 945 1395 1035 1395
1 1 0 1 0 31 42 -1 36 0.000 1 0.0000 1395 1395 90 225 1395 1395 1485 1395
2 1 0 1 0 31 40 -1 -1 0.000 0 0 -1 0 0 2
	 945 1170 1395 1170
2 1 0 1 0 31 40 -1 -1 0.000 0 0 -1 0 0 2
	 945 1620 1395 1620
2 2 0 0 7 31 41 -1 36 0.000 0 0 -1 0 0 5
	 945 1170 1395 1170 1395 1620 945 1620 945 1170
-6
6 3420 1170 3960 1620
1 1 0 1 0 31 62 -1 36 0.000 1 0.0000 3870 1395 90 225 3870 1395 3960 1395
2 1 0 1 0 31 60 -1 36 0.000 0 0 -1 0 0 2
	 3420 1620 3870 1620
2 1 0 1 0 31 60 -1 36 0.000 0 0 -1 0 0 2
	 3420 1170 3870 1170
2 2 0 0 7 31 61 -1 36 0.000 0 0 -1 0 0 5
	 3420 1170 3870 1170 3870 1620 3420 1620 3420 1170
-6
6 3645 1710 4185 2160
1 1 0 1 0 31 62 -1 36 0.000 1 0.0000 4095 1935 90 225 4095 1935 4185 1935
2 1 0 1 0 31 60 -1 36 0.000 0 0 -1 0 0 2
	 3645 2160 4095 2160
2 1 0 1 0 31 60 -1 36 0.000 0 0 -1 0 0 2
	 3645 1710 4095 1710
2 2 0 0 7 31 61 -1 36 0.000 0 0 -1 0 0 5
	 3645 1710 4095 1710 4095 2160 3645 2160 3645 1710
-6
6 900 900 3825 2700
1 1 0 1 0 11 49 -1 34 0.000 1 0.0000 1350 1800 450 900 1350 1800 1800 1800
1 1 0 1 0 11 52 -1 34 0.000 1 0.0000 3375 1800 450 900 3375 1800 3825 1800
2 1 0 1 0 7 50 -1 -1 0.000 0 0 -1 0 0 2
	 1350 900 3375 900
2 1 0 1 0 7 50 -1 -1 0.000 0 0 -1 0 0 2
	 1350 2700 3375 2700
2 2 0 0 7 11 51 -1 34 0.000 0 0 -1 0 0 5
	 1350 900 3375 900 3375 2700 1350 2700 1350 900
-6
6 3330 1980 3870 2430
1 1 0 1 0 31 62 -1 36 0.000 1 0.0000 3780 2205 90 225 3780 2205 3870 2205
2 1 0 1 0 31 60 -1 36 0.000 0 0 -1 0 0 2
	 3330 2430 3780 2430
2 2 0 0 7 31 61 -1 36 0.000 0 0 -1 0 0 5
	 3330 1980 3780 1980 3780 2430 3330 2430 3330 1980
-6
1 1 0 1 0 31 45 -1 36 0.000 1 0.0000 855 2205 90 225 855 2205 945 2205
1 1 0 1 0 31 47 -1 36 0.000 1 0.0000 1305 2205 90 225 1305 2205 1395 2205
2 1 0 1 0 7 10 -1 -1 0.000 0 0 -1 1 0 2
	1 1 1.00 60.00 120.00
	 1350 450 1305 1665
2 1 0 1 0 7 10 -1 -1 0.000 0 0 -1 1 0 2
	1 1 1.00 60.00 120.00
	 1350 450 981 1124
2 1 0 1 0 7 10 -1 -1 0.000 0 0 -1 1 0 2
	1 1 1.00 60.00 120.00
	 1350 450 945 1935
2 1 0 1 0 7 10 -1 -1 0.000 0 0 -1 1 0 2
	1 1 1.00 60.00 120.00
	 2070 540 2070 855
2 2 0 0 7 31 46 -1 36 0.000 0 0 -1 0 0 5
	 855 1980 1305 1980 1305 2430 855 2430 855 1980
2 1 0 1 0 12 45 -1 36 0.000 0 0 -1 0 0 2
	 855 1980 1305 1980
2 1 0 1 0 12 45 -1 36 0.000 0 0 -1 0 0 2
	 855 2430 1305 2430
4 0 0 10 -1 16 10 0.0000 6 120 1095 2070 495 Connexion ssh\001
4 0 0 10 -1 16 10 0.0000 6 120 570 1215 405 Canaux\001
