#FIG 3.2  Produced by xfig version 3.2.8b
Landscape
Center
Metric
A4
100.00
Single
-2
1200 2
6 2340 1170 3645 1935
1 1 0 1 0 11 51 -1 36 0.000 1 0.0000 2520 1530 180 360 2520 1530 2700 1530
1 1 0 1 0 11 54 -1 36 0.000 1 0.0000 3420 1530 180 360 3420 1530 3600 1530
1 1 0 1 0 0 55 -1 20 0.000 1 0.0000 2565 1575 180 360 2565 1575 2745 1575
1 1 0 1 0 0 55 -1 20 0.000 1 0.0000 3465 1575 180 360 3465 1575 3645 1575
2 2 0 0 0 11 53 -1 36 0.000 0 0 7 0 0 5
	 2520 1170 3420 1170 3420 1890 2520 1890 2520 1170
2 1 0 1 0 11 52 -1 36 0.000 0 0 -1 0 0 2
	 2520 1170 3420 1170
2 1 0 1 0 11 52 -1 36 0.000 0 0 -1 0 0 2
	 2520 1890 3420 1890
2 2 0 1 0 0 55 -1 20 0.000 0 0 -1 0 0 5
	 2565 1215 3465 1215 3465 1935 2565 1935 2565 1215
-6
6 540 720 1485 1575
2 2 0 1 0 13 51 -1 36 0.000 0 0 -1 0 0 5
	 540 720 1440 720 1440 1530 540 1530 540 720
2 2 0 1 0 0 52 -1 20 0.000 0 0 -1 0 0 5
	 585 765 1485 765 1485 1575 585 1575 585 765
4 1 0 50 -1 16 10 0.0000 4 120 120 990 1170 ls\001
-6
6 4500 720 5445 1575
2 2 0 1 0 13 51 -1 36 0.000 0 0 -1 0 0 5
	 4500 720 5400 720 5400 1530 4500 1530 4500 720
2 2 0 1 0 0 52 -1 20 0.000 0 0 -1 0 0 5
	 4545 765 5445 765 5445 1575 4545 1575 4545 765
4 1 0 50 -1 16 10 0.0000 4 120 345 4950 1170 wc -l\001
-6
2 1 0 1 0 7 50 -1 -1 0.000 0 0 -1 1 0 2
	1 1 1.00 60.00 120.00
	 2880 1530 3285 1530
3 0 0 1 0 7 50 -1 -1 0.000 0 1 0 4
	1 1 1.00 60.00 120.00
	 1440 1125 1665 1125 1800 1530 2520 1530
	 0.000 1.000 1.000 0.000
3 0 0 1 0 7 50 -1 -1 0.000 0 1 0 4
	1 1 1.00 60.00 120.00
	 3600 1530 3960 1530 4005 1125 4500 1125
	 0.000 1.000 1.000 0.000
4 1 0 50 -1 16 10 0.0000 4 120 345 1980 1710 write\001
4 1 0 50 -1 16 10 0.0000 4 120 330 4050 1710 read\001
4 1 0 50 -1 16 10 0.0000 4 120 1035 2970 1095 unidirectionnel\001
4 1 0 50 -1 16 10 0.0000 4 120 1755 2970 945 canal de communication\001
