#FIG 3.2  Produced by xfig version 3.2.5c
Landscape
Center
Metric
A4      
100.00
Single
-2
1200 2
0 32 #404040
0 33 #808080
0 34 #c0c0c0
0 35 #e0e0e0
0 36 #808080
0 37 #c0c0c0
0 38 #e0e0e0
0 39 #444444
0 40 #8e8f8e
0 41 #e2e2ee
0 42 #94949a
0 43 #dbdbdb
0 44 #a1a1b7
0 45 #9c0000
0 46 #ededed
0 47 #86acff
0 48 #7070ff
6 2093 795 2228 1845
2 1 0 1 0 7 50 -1 -1 0.000 0 0 -1 1 0 4
	1 1 1.00 60.00 120.00
	 2160 990 2205 1305 2115 1260 2160 1665
4 1 0 50 -1 16 12 0.0000 4 150 135 2160 945 C\001
4 1 0 50 -1 16 12 0.0000 4 150 135 2160 1845 D\001
-6
2 1 0 1 0 7 50 -1 -1 0.000 0 0 -1 1 0 4
	1 1 1.00 60.00 120.00
	 1350 1665 1305 1350 1395 1395 1350 990
3 1 0 1 0 13 51 -1 38 0.000 0 0 0 10
	 1305 2070 990 1935 945 1350 1170 720 1665 540 2250 675
	 2385 990 2115 1350 1665 1800 1665 1980
	 1.000 1.000 1.000 1.000 1.000 1.000 1.000 1.000
	 1.000 1.000
4 1 0 50 -1 16 12 0.0000 4 150 135 1350 945 A\001
4 1 0 50 -1 16 12 0.0000 4 150 135 1350 1845 B\001
4 1 0 50 -1 16 12 0.0000 4 150 105 2295 1395 ?\001
4 0 0 50 -1 17 8 0.0000 4 135 1065 1080 2160 port\351e radio de B\001
